# Generated by Pepakura Designer

v 50.463825 -70.083378 100.261753
v 58.718693 -70.311069 89.455662
v 35.092197 -63.932827 106.892628
v 55.321243 -76.654278 96.233494
v 43.705540 -76.025707 104.285427
v 29.854492 -74.502186 107.356663
v 18.268505 -61.910053 104.848316
v 19.653704 -81.092793 108.372204
v 58.623959 -84.061199 99.547253
v 36.615608 -91.543316 111.459370
v 22.354700 -89.574398 112.033649
v 50.170864 -91.990826 105.349087
v 30.131289 -92.733196 108.873814
v 19.091883 -91.489658 111.766163
v 2.113585 -89.813793 107.869938
v 41.559109 -103.489109 87.012661
v 69.666389 -100.692982 82.963829
v 13.708989 -96.521671 99.815769
v 43.389168 -115.637196 61.468678
v 35.626263 -39.609715 -71.911816
v 49.712917 -45.509289 -67.187298
v 49.963524 -51.523441 -70.315189
v 52.506424 -66.989101 -63.230762
v 42.574020 -74.975658 -53.187824
v 30.176271 -70.358128 -71.728603
v 39.065643 -51.247936 -77.771084
v 53.208889 -61.832928 -69.420994
v 22.433992 -73.566608 -62.230366
v 29.919533 -79.334599 -48.029697
v 28.129385 52.197371 -69.695057
v 31.738585 59.689487 -69.942066
v 33.002254 51.343332 -67.545719
v 36.780155 12.525486 -77.692066
v 40.597221 2.735790 -66.137402
v 34.192268 5.138302 -76.871883
v 38.258881 -61.080250 -78.204998
v 27.999149 -48.396847 -79.240841
v 31.939510 9.538817 -80.415508
v 42.462868 -67.280285 -74.152653
v 36.099430 -8.352726 -79.643383
v 20.907101 -7.412251 -80.132267
v 29.631098 21.743821 -93.806881
v 34.423248 37.954353 -75.933903
v 24.582100 66.376965 -72.172169
v 36.299664 13.881883 -88.506283
v 40.946133 13.987241 -79.415173
v 43.534672 14.886592 -75.301105
v 36.312317 20.041293 -89.714474
v 19.715982 57.146786 -67.505871
v 21.316980 52.291819 -67.217632
v 26.516689 32.940041 -83.952755
v 29.391178 11.315372 -89.412228
v 32.727135 16.962178 -93.185230
v 24.888203 -68.581631 -75.206448
v 23.454657 23.150306 -91.971340
v 24.793358 -59.159313 -80.344074
v 15.770723 -66.654316 -75.337414
v 22.984390 15.619362 -92.513485
v 16.253241 4.600006 -64.683788
v 22.480780 2.917961 -75.576702
v 13.226125 -7.535606 -72.393131
v 18.745167 -54.790066 -79.697544
v 1.632786 -7.355064 -65.009365
v 5.800972 -14.924583 -71.624905
v -22.240713 -120.654835 53.672470
v 3.022677 -116.553501 57.582954
v 3.621097 -108.279346 68.095722
v -35.151958 -103.401402 53.769924
v -35.314697 -81.829586 47.533840
v -35.091263 -62.960453 37.502663
v -18.679873 -112.948658 61.994785
v -31.102215 -109.686420 64.106499
v -33.359226 -123.701679 52.560215
v -38.659508 -109.112064 61.435162
v -30.366945 -118.926273 41.491692
v 28.856489 -106.527958 -15.612617
v 31.717474 -115.235737 -6.153204
v 20.600124 -114.103321 -5.199987
v -10.459249 -127.424015 39.824049
v -23.037395 -107.628147 25.779497
v -29.431494 -96.791050 32.160114
v 16.995241 -83.825489 -36.726803
v 21.201252 -81.161289 -43.939568
v 26.982372 -93.708195 -25.901058
v -30.039959 -127.522205 41.771851
v 18.298258 -91.891598 -24.161133
v -30.766842 -124.937458 51.162497
v 8.982327 -128.567509 36.828938
v 13.593142 -112.707706 -1.827841
v -22.823370 -117.776646 30.880604
v -18.123899 -115.645786 23.229050
v -22.994844 -129.490910 42.480413
v 9.050671 -85.089893 -22.207439
v 7.674739 -72.820408 -48.829494
v -48.802639 43.271805 7.377814
v -49.532791 35.627984 20.307429
v -50.860748 44.806772 19.158248
v 12.643971 -77.297535 -47.264469
v -1.032244 -87.138424 -6.648285
v 5.829464 -106.080692 0.815149
v 28.137280 7.550804 -76.671413
v -53.201157 72.160786 20.301418
v -48.841003 80.821869 1.965321
v -49.105766 28.755852 0.889008
v -46.887180 55.358067 -1.050421
v 20.100555 7.260813 -72.988529
v 22.911335 32.970425 -80.370655
v -50.599720 90.640285 14.223136
v -53.683369 85.367271 30.960814
v -12.223849 -124.705402 21.648727
v -23.281910 -124.297688 30.735931
v -15.264957 -121.419514 24.534367
v 0.474361 -82.772762 -10.441156
v 24.892710 12.722895 -78.989780
v 19.420086 16.026737 -83.874882
v 19.733179 -47.635815 -77.255680
v 14.741188 8.966064 -71.826969
v 1.364559 -68.416851 -51.872677
v 2.588407 61.036144 -69.997173
v 16.603773 63.603436 -72.390446
v 12.396903 59.100510 -69.520290
v -45.118900 33.913472 -11.183132
v 16.684792 46.384960 -53.344036
v 19.324345 20.256547 -85.881702
v -42.166897 60.026287 -13.271954
v 10.709641 54.262182 -54.538311
v 14.669548 14.494724 -74.663609
v 19.026976 38.082752 -66.190235
v 15.767693 23.344473 -67.381779
v -20.892534 -145.074192 35.275962
v -6.323354 -62.247158 -45.376766
v 13.561114 32.221957 -60.500629
v 3.061884 -64.257221 -61.803104
v 14.181103 10.709891 -64.361912
v 7.755051 -57.929592 -71.724529
v 4.723879 111.299732 -51.463566
v -5.502022 118.144245 -40.265686
v 16.615005 131.486095 -37.029556
v 4.554765 81.579967 -66.746655
v 15.287067 76.096165 -71.291500
v 3.826254 64.871220 -71.156071
v -0.469434 94.491436 -56.611118
v 8.944901 90.988293 -62.023731
v -2.352438 -58.771206 -56.080807
v 10.417945 11.145434 -63.193150
v -8.138257 108.611118 -47.180058
v -40.110737 42.059813 -20.124641
v -39.296803 15.196648 -27.296654
v -37.077927 27.871346 -28.461327
v -13.975575 57.996078 -61.363659
v -12.853559 69.970722 -60.149128
v -6.198735 56.639795 -61.200047
v -12.194068 64.589111 -63.394192
v -9.184610 79.561073 -59.880207
v -15.731778 119.575123 -29.065136
v -12.654758 127.086315 -20.893269
v 2.616045 -47.804966 -63.688366
v -4.945332 -5.644588 -63.202465
v 4.105129 26.725475 -56.907612
v -30.761507 17.332283 -41.905354
v -33.313038 41.968330 -29.651009
v 6.878654 36.570332 -55.075062
v 2.267066 10.255715 -62.133862
v -15.408271 91.166988 -48.466396
v -16.277143 111.347279 -37.013474
v -34.388351 51.341167 -30.904121
v -5.429927 -48.270107 -56.804943
v 2.032948 -41.564411 -63.346241
v -31.435057 30.331334 -36.765732
v -10.875483 39.316810 -54.604733
v -10.612660 45.559525 -56.114170
v 3.288694 46.448675 -55.470028
v -13.631721 -41.640568 -52.509251
v -17.640373 -55.289051 -35.101406
v -4.044407 50.839659 -59.748005
v -9.922098 9.846392 -56.848866
v -31.883961 37.128047 -30.213318
v -6.227267 32.316566 -54.050220
v -1.163444 38.803670 -57.036686
v -20.525520 20.902660 -51.336475
v -19.172695 0.781822 -52.698124
v -29.649881 6.878904 -42.890301
v -25.673977 111.657330 -23.327663
v -8.959461 -32.976856 -60.323154
v -30.047316 64.920959 -38.160732
v -34.415611 62.508678 -28.775909
v -32.722664 77.329014 -30.728970
v -20.995926 60.558708 -56.172245
v -25.634140 98.123455 -34.191570
v -22.272816 54.120604 -52.175877
v -32.559330 59.507030 -40.595036
v -20.428268 32.685616 -45.933056
v -41.493706 77.553047 -15.878300
v -40.327137 89.094799 -13.327835
v -22.991501 43.416254 -42.932671
v -22.377626 71.856575 -47.378521
v -33.297779 109.743725 -10.564869
v -33.493790 91.293613 -23.062622
v -37.284031 102.763958 -7.203503
v 78.304886 47.546284 -42.151104
v 85.945610 48.259117 -32.048340
v 73.622620 43.809622 -44.315998
v 87.167198 40.267912 -28.697121
v 83.156441 23.732753 -41.793163
v 74.304260 19.658328 -50.532482
v 86.777145 16.509842 -38.800243
v 71.058540 34.140580 -46.553173
v 69.042191 9.381538 -54.263165
v 77.290085 0.333651 -49.067036
v 64.012787 48.930811 -53.789738
v 63.082432 41.777950 -53.212185
v 59.502644 33.732466 -52.173824
v 76.492859 -136.242054 32.312759
v 66.288811 -114.540623 15.589181
v 79.031548 -131.116810 34.124484
v 71.443390 56.814280 -57.694462
v 60.837898 55.042927 -59.987995
v 75.531319 -129.489536 39.103285
v 46.726662 20.139115 -62.276058
v 64.016083 -1.873966 -60.175457
v 49.706852 28.768902 -55.928585
v 53.572990 45.905666 -53.029758
v 44.754112 35.728587 -53.870770
v 52.577290 62.175777 -68.912861
v 66.056358 65.097271 -62.116650
v 55.666767 -17.733212 -67.439320
v 68.920258 -17.011211 -57.237080
v 67.615654 -30.005447 -58.783573
v 68.797401 -138.414783 29.452926
v 71.223061 -138.194721 26.967504
v 46.311920 59.874607 -67.800694
v 61.756931 80.768463 -58.889439
v 62.549976 70.735825 -61.607632
v 47.002110 77.515121 -68.460590
v 45.917572 12.221184 -62.820843
v 58.424625 -9.134373 -62.998211
v 43.794380 -126.357182 44.474840
v 49.415710 -126.911884 7.872280
v 42.177998 -111.943699 -5.410463
v 54.541771 -118.774097 8.428916
v 45.645306 46.423332 -50.895657
v 48.677589 -10.038677 -69.638462
v 41.110302 -119.210773 53.834705
v 45.011395 55.923199 -54.989895
v 44.957264 65.833721 -71.070454
v 44.338699 5.939535 -62.916637
v 40.134266 -124.583775 2.180525
v 35.732742 -106.745228 -15.683224
v 37.560558 -94.619175 -24.492348
v 38.982185 49.879993 -51.884212
v 43.512524 -39.953556 -69.759808
v 62.110081 -42.293308 -58.667553
v 42.818089 32.329777 -58.755207
v 41.621689 24.816321 -66.162373
v 38.039089 92.213070 -62.670567
v 48.991386 104.003124 -55.300358
v 53.574989 91.565670 -57.939571
v 36.919540 44.564911 -55.972591
v 34.197678 -133.504398 7.979288
v 52.358673 -138.046436 11.677691
v 46.468464 -136.102848 14.477765
v 28.961617 -124.341602 -0.130713
v 39.136436 -13.864128 -76.416409
v 50.990601 -24.165951 -66.566883
v 35.381676 105.976116 -57.244526
v 47.744091 114.253178 -49.914585
v 36.145199 56.680607 -65.303112
v 50.692749 -139.799473 20.100741
v 37.459396 -136.602512 27.266453
v 35.709595 74.043232 -71.493778
v 37.626556 -31.496822 -75.642628
v 38.505825 -25.275600 -76.671650
v 38.305027 -20.460205 -73.048359
v 31.173588 -17.246090 -75.603031
v 25.905458 -133.973637 13.039400
v 20.932602 -134.834614 10.610992
v 25.915180 114.797657 -53.073498
v 27.426540 -19.360504 -74.921268
v 23.383152 125.229801 -44.870975
v 23.396744 -32.614799 -75.880322
v 23.221889 -25.111088 -77.752491
v 14.562061 -132.971958 23.101851
v 12.043289 -134.305607 13.765388
v 29.864965 -14.660378 -79.698978
v 17.727070 -20.828739 -72.398037
v 25.651127 -40.664371 -72.488537
v 18.426697 -38.653996 -71.395023
v 16.432173 -14.109077 -77.064442
v -18.672672 -135.028080 37.599892
v -8.873386 -132.813847 33.272471
v -11.200027 -110.765842 17.932722
v 12.567359 -136.400028 16.549870
v -0.779280 -120.669758 14.316572
v -2.096084 -88.942852 -0.160469
v -14.513043 -90.225765 14.675821
v -7.705179 -81.459423 2.745756
v 12.068281 -46.247456 -70.157269
v -6.592778 -98.476437 9.553828
v -25.697920 -136.739170 36.966898
v 2.576497 -98.297375 3.506008
v -4.441558 -139.120274 22.752024
v 7.545760 -27.375225 -67.631779
v -6.393407 -139.947544 26.217417
v 0.855798 -26.252029 -66.033146
v 8.410479 44.969372 -52.899448
v -5.717824 -17.437645 -63.182117
v -19.334019 -20.406761 -50.877651
v -27.540956 -2.891642 -42.484230
v 102.646294 33.638414 29.966178
v 96.109825 22.759605 39.667837
v 92.180252 14.602335 31.508677
v 95.074821 20.629294 27.888873
v 97.412262 32.581850 26.439904
v 100.023743 42.231459 32.218379
v 95.486488 11.699965 24.567456
v 99.014130 42.710392 17.906702
v 95.187698 32.457358 21.732957
v 103.476761 68.359535 30.014608
v 97.578903 53.216780 2.666790
v 99.615967 32.903389 3.978911
v 99.776398 79.218342 9.383611
v 96.449585 22.737314 -14.068329
v 93.878265 41.962036 -14.717007
v 92.216743 18.771920 -27.571815
v 92.869240 58.564880 -14.120140
v 84.346703 -78.199680 43.842941
v 84.371941 -99.500454 45.035316
v 83.277168 -94.766094 37.527580
v 83.421959 -95.443607 62.635994
v 72.368851 -77.050068 13.428543
v 81.607407 -70.602009 26.226101
v 78.404099 -105.352497 26.342407
v 91.483688 0.679422 -27.108948
v 84.808266 -8.031097 -39.219662
v 83.790329 -114.922932 42.837381
v 92.865517 81.522835 -11.511856
v 82.652496 71.391762 -35.859417
v 82.443054 86.437580 -29.762405
v 62.094727 -93.438869 6.512543
v 72.982826 -107.495060 19.759128
v 82.867737 -125.783756 39.453032
v 81.497040 58.566982 -45.978153
v 71.718903 72.661621 -52.407177
v 72.269951 -34.613186 -53.239788
v 73.840500 60.966747 -56.012196
v 58.483665 131.011570 -18.675388
v 73.392906 122.674465 -11.588049
v 64.951836 119.331348 -32.328033
v 53.674000 -104.944736 1.847956
v 59.866203 -117.607624 13.196556
v 44.471146 146.049931 1.235733
v 65.400848 134.773754 3.031240
v 53.013714 -91.019695 -10.698343
v 52.544079 -82.111805 -26.244408
v 45.258152 -92.132999 -21.102551
v 38.346279 140.029263 -21.834042
v 66.822067 -50.338017 -51.995884
v 59.725250 -127.038700 13.229653
v 42.928959 -84.890247 -35.857773
v 55.798702 118.746700 -40.962337
v 60.490524 -49.808392 -59.191212
v 61.333229 -61.671528 -52.350216
v 49.214981 -74.783321 -48.210934
v 36.502995 148.295811 1.061832
v 29.047771 133.370838 -35.865349
v 29.557707 143.602703 -18.082066
v 37.448936 34.975779 -66.522686
v 56.990574 -144.253178 15.676223
v 35.417236 51.016287 -61.570400
v 19.199680 140.654591 -24.323776
v 20.390970 88.766956 -64.788410
v 18.491762 102.482410 -59.217876
v 66.739143 4.968996 102.397564
v 75.543007 14.656128 99.095524
v 71.043724 23.614664 108.458424
v 63.424011 31.311015 121.337727
v 56.524765 22.415538 120.231777
v 77.439285 4.586460 89.986431
v 87.508102 13.993746 80.794128
v 91.700668 71.205601 96.766605
v 86.569664 65.711349 105.670238
v 88.992569 46.165907 95.624561
v 87.635406 -5.698824 57.513969
v 93.229622 20.937927 72.793755
v 83.031593 -7.326580 67.136654
v 64.313538 -16.837585 85.500401
v 101.236938 48.567591 56.496471
v 94.817757 25.747633 64.272369
v 100.066566 42.728359 49.652540
v 86.619858 -15.130424 48.848158
v 81.684090 -20.377682 59.369480
v 88.375816 -6.725037 39.096977
v 93.696663 5.709974 36.646919
v 73.942451 100.305988 109.895283
v 75.928185 90.229450 113.258289
v 78.579674 109.789303 97.054806
v 87.993385 113.925663 81.865849
v 88.061760 90.969486 99.619251
v 94.824257 92.810863 87.195789
v 85.051750 -15.577702 30.866663
v 100.908737 95.615749 59.755863
v 99.751404 85.613205 75.529968
v 103.487823 68.111908 52.384964
v 84.526634 -18.380978 34.535579
v 90.705193 -1.850513 38.332508
v 91.500778 2.141869 23.239324
v 93.291885 9.001015 28.005750
v 89.566917 -5.331533 28.805857
v 97.969734 101.719219 70.722710
v 102.626083 88.050747 39.241556
v 84.949776 -10.423817 33.001456
v 93.239891 23.160587 20.652691
v 97.891968 105.441288 60.028580
v 93.158165 112.262470 67.386395
v 85.509415 -32.506664 39.212738
v 93.580078 7.172150 18.257151
v 89.688187 -16.323769 25.806353
v 81.802277 -40.716213 21.912463
v 87.832672 -20.177921 23.339816
v 98.887894 102.440144 37.504154
v 91.137901 -16.134308 16.441232
v 97.760727 17.096575 6.395594
v 81.290558 -46.371662 23.864001
v 92.115829 116.036518 51.359890
v 85.866318 -53.938938 37.243145
v 83.206604 123.789425 72.865307
v 92.500076 -25.070160 8.439513
v 96.321571 -4.589455 8.958066
v 95.213303 103.888615 17.368521
v 100.538048 88.246700 18.720904
v 88.597443 120.557484 36.891935
v 90.525200 120.815845 53.697613
v 87.155602 124.928638 60.298515
v 96.217140 -10.822117 0.552494
v 78.538391 -56.968510 18.417955
v 84.173279 123.684261 42.768171
v 96.300591 8.188507 -8.122663
v 80.333321 -51.669094 10.090719
v 89.380310 -36.319389 4.290033
v 92.299362 -29.581631 -6.799227
v 93.606712 92.243877 -3.421320
v 72.637779 -87.957005 90.936756
v 68.098366 -79.523624 83.836483
v 92.997734 -23.089584 -12.654205
v 67.547684 137.803974 59.150314
v 57.159405 135.402752 87.544964
v 71.633339 131.744823 74.596870
v 74.803246 -84.036320 76.885708
v 40.535881 145.319073 70.738529
v 85.503242 -97.724270 76.705894
v 77.081177 132.082218 36.139402
v 86.044586 -43.021938 -10.634575
v 75.085579 -96.429775 86.599949
v 83.309868 122.987812 18.570916
v 76.584496 131.808163 53.934177
v 79.571709 -81.476910 61.875366
v 81.488747 -92.457653 72.383713
v 74.862030 -68.492977 13.809103
v 71.767647 -65.699093 0.162962
v 90.221359 -12.329292 -24.694344
v 85.794464 114.004787 6.069658
v 88.043045 102.729580 -6.052113
v 62.204823 -80.282772 -4.495558
v 82.098991 111.074657 -14.161747
v 85.446640 -104.489094 55.778168
v 88.436111 -107.163349 62.086159
v 86.159363 -38.568821 -20.943344
v 82.841347 -31.192265 -37.204720
v 87.141151 -106.330845 67.223621
v 74.557777 -56.012997 -31.863255
v 59.404297 140.992001 15.524294
v 84.275299 -118.951969 49.535168
v 65.096748 -69.948734 -21.349827
v 66.249687 -113.757374 62.498253
v 78.350555 -44.258358 -39.046906
v 66.113213 139.510159 42.854843
v 64.069801 -120.695438 52.069233
v 65.589203 -60.682232 -43.455471
v 65.727951 -143.163822 23.222416
v 70.628151 38.500705 117.698078
v 88.369560 31.860581 87.511150
v 80.324562 52.538620 111.053974
v 94.831779 44.146347 78.176437
v 61.929302 44.534258 127.186687
v 56.646381 5.680693 109.871754
v 75.927811 71.191452 119.147892
v 48.171886 26.263839 127.889347
v 48.432182 36.413458 131.576504
v 47.647163 9.256166 115.814648
v 66.679924 69.166149 125.513309
v 56.233036 -11.065945 98.130779
v 48.473839 -9.781311 103.840008
v 48.987663 54.049097 134.310429
v 35.499836 15.995126 126.461201
v 92.568565 11.786324 59.404827
v 28.911285 -3.053274 113.964802
v 51.073994 -16.703476 100.351864
v 53.179405 77.488888 130.460339
v 59.038914 -23.508778 87.588192
v 28.929819 14.329901 128.346760
v 92.858192 16.146447 51.619846
v 93.822319 29.239567 50.738317
v 28.002851 38.764233 136.542484
v 68.695038 80.098320 122.353611
v 24.063463 -20.461788 108.491344
v 48.682224 -20.744137 97.926716
v 89.731361 4.523560 47.352957
v 94.819275 18.866817 50.004335
v 39.072525 -23.885342 102.288616
v 95.698669 27.800045 45.607275
v 38.811867 61.779186 136.116085
v 87.803543 79.871899 103.697323
v 32.881618 54.277309 136.716335
v 97.728508 15.609894 47.467575
v 51.119049 -39.771770 89.191837
v 64.046913 -32.467384 77.387207
v 97.240135 6.533693 45.667454
v 99.091652 38.742019 40.027882
v 103.120728 55.802999 42.095354
v 28.476646 69.099068 135.110378
v 26.041351 54.694893 138.989124
v 60.043762 91.881855 122.219021
v 34.577068 -39.346851 101.974445
v 73.351196 -36.115238 64.923119
v 25.577345 64.806622 138.909710
v 59.441685 -48.663898 79.295959
v 42.034462 99.135014 125.840649
v 30.883982 88.759274 131.011906
v 82.925880 -33.855801 51.862171
v 85.220840 -33.027996 45.967484
v 20.983225 67.609867 136.874111
v 54.971226 107.073109 116.135639
v 54.517246 -57.634945 87.670918
v 75.790672 -53.571064 61.049614
v 25.934652 85.418896 133.080853
v 34.199501 118.066639 117.696308
v 63.491730 113.702351 108.315815
v 82.303024 -58.337543 49.786291
v 36.427116 -50.922382 101.700428
v 24.566723 106.729427 125.880497
v 75.270264 -71.934521 65.321590
v 25.064682 -52.713428 105.350658
v 24.518009 -40.535404 105.076366
v 30.884325 -54.732464 105.517941
v 70.057182 123.504986 93.023945
v 53.895828 124.344616 105.012287
v 13.168949 113.577763 121.065166
v 32.854248 124.668713 111.504147
v 42.792992 130.354145 103.444218
v 21.984081 120.548641 117.114727
v 45.505493 136.939739 92.808117
v 10.471210 128.592937 109.296558
v 22.844437 129.984386 104.075962
v 29.797703 138.143047 94.283398
v 39.860371 142.340496 83.638317
v -25.314686 -8.893368 83.020050
v -11.032221 -21.226219 89.806828
v -12.482662 -12.040161 95.955669
v 6.401213 -35.975613 98.566402
v -25.777140 -21.193520 76.924236
v -30.031385 5.463089 91.161991
v -22.703352 -34.061455 76.539146
v -8.196736 -41.838413 86.428761
v -35.693169 -0.786558 75.757584
v -30.956062 -16.167683 71.863995
v -22.106186 -50.815258 75.286343
v -22.244223 -66.748180 76.866596
v -38.529984 14.621634 85.518208
v -27.930391 16.477020 102.076786
v -30.031647 -29.934223 68.133518
v -36.714306 -12.352554 60.909084
v -42.644257 15.080786 75.823059
v -39.545422 29.352970 89.359211
v -27.746006 -53.926807 67.488499
v -46.754074 47.723749 85.140972
v -41.931053 46.191053 98.392445
v -45.391674 31.347668 76.983185
v -28.595312 -76.683475 70.986523
v -33.432064 -73.240925 58.623173
v -33.698456 -38.892330 57.090981
v -22.410276 -78.628437 80.024513
v -49.952122 84.791874 87.279606
v -39.165527 79.672726 106.407192
v -39.280769 96.169170 99.950359
v -33.540516 -89.625469 66.461761
v -44.552589 27.933037 51.452091
v -43.017414 14.095020 58.835270
v -46.833000 28.944637 65.187984
v -35.274345 -22.616833 38.686949
v -37.470657 -4.944284 49.162230
v -35.811760 -7.083427 38.414579
v -48.701786 103.050854 80.783894
v -50.267300 37.143435 42.109409
v -52.237690 43.718779 56.982006
v -29.212723 -89.531033 78.344048
v -32.944603 -35.357895 27.731909
v -35.538193 -21.111713 31.688147
v -49.562717 55.230204 78.821579
v -32.154430 -40.881374 28.454109
v -54.925789 72.288895 62.124252
v -48.233074 72.059265 89.871075
v -44.642578 7.305494 23.673724
v -45.447975 1.248405 47.749609
v -46.833450 11.698844 38.145115
v -54.683323 91.959522 67.661011
v -40.534187 -7.508217 31.823564
v -50.749874 105.667881 68.755524
v -38.732079 -19.991062 26.399728
v -52.889767 45.894606 42.286652
v -35.519215 -96.953197 60.911156
v -29.336336 -56.283993 24.718228
v -44.493797 118.286785 56.269699
v -43.378242 115.129185 74.788448
v -40.365120 121.986034 66.762745
v -37.286339 -35.865913 8.874679
v -45.008118 24.452733 25.574159
v -29.278547 -48.183895 16.208031
v -55.457550 80.964031 50.415781
v -44.381908 -11.137341 12.667700
v -25.213713 -55.953861 15.169357
v -49.467278 31.885843 34.686881
v -47.243217 5.998949 10.264513
v -30.649673 131.827953 44.889101
v -53.757851 100.210087 50.903667
v -44.498726 -14.504696 3.777132
v -21.940510 -76.323254 18.092873
v -50.754681 107.088444 46.739372
v -19.592396 -69.817730 12.732314
v -38.258644 125.438053 42.519657
v -54.720627 59.335995 41.551392
v -38.800659 -33.278091 -1.431561
v -24.136200 -55.460194 -0.842897
v -30.136236 -49.010166 -8.008986
v -13.413553 -67.018703 -7.130558
v -16.817942 -66.380016 4.602406
v -50.762451 31.555047 9.216103
v -44.742382 116.050739 42.220140
v -36.319199 122.246273 20.201260
v -36.284832 -25.366768 -19.821426
v -30.082006 -44.178410 -18.441502
v -47.897160 102.052456 19.198679
v -41.147964 115.196102 19.735268
v -41.164406 5.614885 -18.853405
v -14.555748 -64.224697 -19.891224
v -36.098911 1.326399 -30.099266
v -24.872906 -40.131962 -34.818298
v -33.622032 116.955830 4.084556
v -28.361353 -16.673466 -39.182194
v -44.794998 97.005596 2.449312
v 20.696432 13.808812 128.406750
v 17.405039 35.278105 136.656200
v 18.358984 -2.448383 114.774532
v 10.201860 19.004519 128.825237
v 14.686643 46.921738 138.483334
v 18.304157 -16.063850 109.158352
v 4.710360 35.877314 135.241268
v -0.356772 24.775210 127.601719
v 6.212399 52.776714 137.717854
v 12.691304 62.779564 138.458630
v 0.171717 7.367645 116.922886
v 3.583015 -21.372028 101.543255
v 1.267409 -11.074245 105.728550
v 2.890316 66.996197 136.135555
v -10.265685 30.597691 125.978191
v 18.283882 -43.250935 103.655163
v -13.550608 3.601572 108.705402
v -11.810781 21.472900 118.716541
v 15.037531 93.720036 130.297123
v -9.313866 43.794100 130.002003
v -4.303596 55.004417 134.186199
v -18.278944 38.251525 123.293346
v 6.122866 -46.977024 97.469364
v -4.801389 88.101124 127.528667
v -7.973447 75.104015 130.668537
v -12.437140 64.090946 130.247166
v -21.629602 6.225056 104.043751
v -29.252617 63.427555 118.400181
v -25.372320 80.657795 119.966946
v -26.829454 27.110013 108.192287
v -27.960472 45.189310 115.916462
v 3.363603 -65.108395 98.671253
v -8.673322 -54.356167 86.186794
v 9.875592 -79.422665 105.347340
v -11.661077 106.652119 114.945576
v -6.027294 -68.989971 92.742886
v -23.222588 100.064610 112.094059
v -36.489220 55.927462 108.722973
v 0.764603 -81.704662 102.754330
v -3.013929 121.241520 110.185879
v 10.187297 130.977505 100.106228
v -4.423580 129.796688 101.236034
v -11.548811 -83.377758 95.292347
v -12.054573 126.623531 100.922680
v -20.157089 117.792454 103.423664
v 4.437372 -92.655918 103.543781
v -42.131477 66.635937 101.917240
v -2.547387 -92.876225 106.102627
v -0.001908 132.238148 89.785404
v -15.795957 -92.758556 99.222301
v -8.134726 -94.013111 98.143284
v 1.195610 -94.145153 93.804630
v -35.671444 -27.149269 49.522196
v -15.733358 128.290325 87.554821
v -21.658340 -95.664593 93.806347
v -24.764484 123.714993 92.497234
v 3.520567 -99.407078 88.064228
v -14.309119 -97.542606 86.224400
v -29.448790 -96.070049 85.261532
v -40.816513 108.533474 88.722897
v -42.492981 7.521511 53.141319
v -39.535595 -2.491020 46.361771
v -44.619205 17.699094 53.397316
v -31.004410 -98.644138 81.085667
v -50.246792 11.518216 50.873442
v -7.706906 134.241879 82.497208
v -24.555622 127.987690 77.794724
v -48.810638 31.794323 44.436258
v -36.603661 -101.814526 72.929169
v -24.774574 133.032291 65.400990
v -35.188847 -103.241688 74.350845
v -50.351612 24.995387 44.576429
v 21.535402 137.072987 92.064503
v 47.307205 146.404606 47.604773
v 21.683508 143.468555 83.146645
v 8.120446 142.678585 79.125286
v 28.410267 148.154339 69.715477
v 8.772209 138.612514 83.091759
v 78.345070 98.543819 -32.702953
v 33.398914 149.906147 51.440140
v 17.695965 148.147816 67.017937
v 47.128990 147.133877 20.916811
v 66.703453 109.311214 -41.146530
v 25.141171 150.770206 53.249466
v -5.466138 138.839893 79.070618
v 37.411804 149.248974 14.807923
v 12.080572 149.830021 50.519320
v 1.335971 145.245914 63.896725
v 68.220528 92.109295 -47.923290
v -16.781099 135.697826 72.667782
v -7.008304 143.755558 46.322716
v 24.814354 150.770000 12.560589
v 59.145485 105.495258 -49.210377
v 16.211241 149.753689 12.069032
v 24.414667 148.028316 -4.557022
v 0.190850 146.279003 18.355944
v 12.718573 145.167110 -11.566265
v -13.279539 140.242489 19.643671
v -26.271355 131.948650 21.227763
v 7.357776 139.041622 -19.836285
v -6.835999 139.129093 -1.009867
v -21.905451 129.120564 0.565454
v -24.975012 120.612644 -11.921135
vt 0.140771 0.465904
vt 0.153669 0.464630
vt 0.125882 0.457705
vt 0.147327 0.471596
vt 0.133860 0.472269
vt 0.124355 0.461498
vt 0.120265 0.471978
vt 0.108101 0.460856
vt 0.111194 0.479232
vt 0.148839 0.479807
vt 0.263735 0.475622
vt 0.273466 0.468015
vt 0.258768 0.459943
vt 0.249572 0.474994
vt 0.127060 0.488543
vt 0.057298 0.033921
vt 0.073267 0.029204
vt 0.062077 0.026092
vt 0.113400 0.487149
vt 0.120887 0.491272
vt 0.059069 0.042283
vt 0.053922 0.032629
vt 0.044991 0.018544
vt 0.244772 0.479739
vt 0.040542 0.032761
vt 0.038227 0.062629
vt 0.055292 0.043484
vt 0.262954 0.497826
vt 0.289157 0.490549
vt 0.014126 0.074830
vt 0.457288 0.667702
vt 0.442302 0.670448
vt 0.442016 0.676906
vt 0.431588 0.691610
vt 0.428541 0.706772
vt 0.450187 0.705134
vt 0.454175 0.680162
vt 0.436349 0.685550
vt 0.461227 0.714234
vt 0.440522 0.718207
vt 0.451058 0.726917
vt 0.361801 0.308598
vt 0.354956 0.312601
vt 0.363268 0.313525
vt 0.409119 0.312153
vt 0.418425 0.323770
vt 0.416610 0.311775
vt 0.452433 0.689411
vt 0.465153 0.680416
vt 0.459625 0.668533
vt 0.456243 0.703239
vt 0.412802 0.307404
vt 0.445570 0.693744
vt 0.070673 0.605465
vt 0.071533 0.611620
vt 0.083858 0.616488
vt 0.086522 0.602220
vt 0.396235 0.294934
vt 0.377828 0.309454
vt 0.347887 0.306145
vt 0.404168 0.303010
vt 0.404639 0.312730
vt 0.403955 0.317391
vt 0.398227 0.302311
vt 0.353399 0.283884
vt 0.359366 0.291320
vt 0.358239 0.284504
vt 0.345239 0.291101
vt 0.382251 0.291023
vt 0.409871 0.298820
vt 0.401059 0.297494
vt 0.462016 0.700805
vt 0.455908 0.702199
vt 0.408266 0.297241
vt 0.394476 0.288900
vt 0.465437 0.691166
vt 0.470807 0.702070
vt 0.401643 0.288118
vt 0.407222 0.293750
vt 0.110387 0.944478
vt 0.098388 0.945737
vt 0.105281 0.957516
vt 0.472096 0.688594
vt 0.472638 0.700958
vt 0.095507 0.579861
vt 0.078050 0.584252
vt 0.099559 0.589408
vt 0.206710 0.415638
vt 0.192369 0.395559
vt 0.180411 0.400021
vt 0.077773 0.202146
vt 0.077295 0.180751
vt 0.072645 0.160921
vt 0.085926 0.220130
vt 0.084131 0.207856
vt 0.067593 0.213387
vt 0.201570 0.435160
vt 0.208714 0.441726
vt 0.223304 0.428929
vt 0.255794 0.300935
vt 0.246878 0.309771
vt 0.255894 0.315512
vt 0.074723 0.221814
vt 0.215683 0.399472
vt 0.238516 0.441811
vt 0.223656 0.428844
vt 0.228851 0.451158
vt 0.148275 0.337667
vt 0.144512 0.330210
vt 0.137511 0.350700
vt 0.213179 0.422686
vt 0.224378 0.420797
vt 0.146059 0.351778
vt 0.067048 0.216382
vt 0.211083 0.381265
vt 0.215082 0.420310
vt 0.146924 0.381205
vt 0.139734 0.378971
vt 0.235865 0.431314
vt 0.244103 0.434394
vt 0.062271 0.227307
vt 0.458227 0.732906
vt 0.453432 0.218809
vt 0.446347 0.232953
vt 0.459726 0.227949
vt 0.224533 0.420688
vt 0.067141 0.238678
vt 0.428470 0.231422
vt 0.156975 0.349777
vt 0.413563 0.865521
vt 0.427355 0.869415
vt 0.424169 0.861098
vt 0.153069 0.326101
vt 0.016458 0.171314
vt 0.004760 0.197243
vt 0.013002 0.191496
vt 0.433987 0.234946
vt 0.066437 0.608857
vt 0.446221 0.694634
vt 0.000000 0.164593
vt 0.143885 0.311309
vt 0.473170 0.729027
vt 0.466845 0.730713
vt 0.418723 0.835484
vt 0.399207 0.832337
vt 0.418117 0.308502
vt 0.425630 0.916288
vt 0.417174 0.903711
vt 0.403033 0.904456
vt 0.101764 0.941619
vt 0.093376 0.940785
vt 0.097109 0.956526
vt 0.013488 0.575174
vt 0.023373 0.555153
vt 0.008645 0.575207
vt 0.408035 0.820134
vt 0.425010 0.820574
vt 0.036157 0.213574
vt 0.049691 0.215317
vt 0.050414 0.209128
vt 0.040581 0.211086
vt 0.021189 0.975907
vt 0.007469 0.978936
vt 0.025218 0.979933
vt 0.406986 0.275917
vt 0.409413 0.286544
vt 0.413009 0.274346
vt 0.095688 0.935006
vt 0.005356 0.587172
vt 0.400122 0.279334
vt 0.053272 0.228291
vt 0.473225 0.681417
vt 0.405383 0.267079
vt 0.402553 0.856615
vt 0.105726 0.937843
vt 0.480627 0.726461
vt 0.093304 0.931311
vt 0.288270 0.857972
vt 0.288923 0.871726
vt 0.292666 0.866438
vt 0.414904 0.923766
vt 0.366288 0.255187
vt 0.357812 0.270149
vt 0.362678 0.269780
vt 0.396266 0.281581
vt 0.382787 0.279482
vt 0.393934 0.288746
vt 0.392467 0.912461
vt 0.356802 0.254886
vt 0.405100 0.266211
vt 0.400077 0.269349
vt 0.375982 0.266300
vt 0.390286 0.264398
vt 0.306195 0.859754
vt 0.297366 0.872244
vt 0.047502 0.235597
vt 0.421271 0.228202
vt 0.419159 0.217151
vt 0.137963 0.778893
vt 0.141126 0.763808
vt 0.130177 0.773686
vt 0.481778 0.716138
vt 0.402826 0.259247
vt 0.482439 0.704082
vt 0.408981 0.259092
vt 0.390995 0.263193
vt 0.211125 0.857556
vt 0.218405 0.866501
vt 0.236902 0.852724
vt 0.228145 0.839505
vt 0.131965 0.788005
vt 0.268876 0.863998
vt 0.276997 0.873203
vt 0.284895 0.860112
vt 0.252763 0.861167
vt 0.259583 0.869637
vt 0.146768 0.591959
vt 0.148527 0.600937
vt 0.156987 0.594910
vt 0.137010 0.800319
vt 0.133242 0.800596
vt 0.131053 0.806350
vt 0.154773 0.583879
vt 0.239641 0.839840
vt 0.409642 0.942078
vt 0.420835 0.947210
vt 0.403021 0.927570
vt 0.489993 0.720165
vt 0.131372 0.788265
vt 0.254165 0.850054
vt 0.144346 0.818489
vt 0.284734 0.842576
vt 0.284596 0.859543
vt 0.291078 0.840157
vt 0.279013 0.840697
vt 0.269756 0.843883
vt 0.268141 0.858558
vt 0.294312 0.846951
vt 0.256623 0.833716
vt 0.227949 0.817129
vt 0.217498 0.813772
vt 0.229463 0.831571
vt 0.495211 0.707635
vt 0.150880 0.816994
vt 0.043247 0.563288
vt 0.056781 0.570665
vt 0.065725 0.564311
vt 0.402288 0.948633
vt 0.410119 0.959429
vt 0.396734 0.936783
vt 0.371048 0.978895
vt 0.357741 0.979597
vt 0.379945 0.983242
vt 0.144805 0.801470
vt 0.237667 0.822099
vt 0.381338 0.924896
vt 0.389210 0.932341
vt 0.240602 0.834437
vt 0.499826 0.716620
vt 0.500692 0.705239
vt 0.080327 0.572124
vt 0.380607 0.962421
vt 0.376104 0.958268
vt 0.366235 0.967168
vt 0.137769 0.586644
vt 0.134168 0.576407
vt 0.153832 0.567901
vt 0.300344 0.847501
vt 0.304329 0.839715
vt 0.086377 0.560995
vt 0.399594 0.940038
vt 0.382746 0.970157
vt 0.374415 0.969697
vt 0.371768 0.977428
vt 0.399403 0.967955
vt 0.413594 0.980981
vt 0.417210 0.966568
vt 0.382235 0.971949
vt 0.203937 0.017327
vt 0.215640 0.011030
vt 0.209029 0.002345
vt 0.122564 0.580429
vt 0.136527 0.586757
vt 0.133791 0.576255
vt 0.400861 0.983403
vt 0.279331 0.839917
vt 0.258191 0.830375
vt 0.269820 0.842233
vt 0.362675 0.858479
vt 0.372791 0.857952
vt 0.366598 0.845021
vt 0.288771 0.831797
vt 0.251005 0.813871
vt 0.295335 0.828549
vt 0.304327 0.839653
vt 0.363101 0.864607
vt 0.024931 0.941215
vt 0.012746 0.934684
vt 0.009356 0.941958
vt 0.256815 0.800560
vt 0.270844 0.806410
vt 0.269671 0.790014
vt 0.258385 0.789140
vt 0.028842 0.931045
vt 0.011654 0.928656
vt 0.276977 0.824811
vt 0.237656 0.791394
vt 0.236656 0.805644
vt 0.244232 0.786325
vt 0.307438 0.822580
vt 0.283143 0.813137
vt 0.474367 0.154650
vt 0.462280 0.154373
vt 0.478804 0.158794
vt 0.027591 0.677982
vt 0.046212 0.669499
vt 0.051711 0.658302
vt 0.052415 0.674880
vt 0.048398 0.907066
vt 0.025546 0.900969
vt 0.048765 0.921705
vt 0.370637 0.387093
vt 0.360109 0.382311
vt 0.367647 0.399410
vt 0.058185 0.893033
vt 0.045284 0.897806
vt 0.058400 0.899926
vt 0.298013 0.183829
vt 0.285767 0.183419
vt 0.284594 0.198015
vt 0.295403 0.175791
vt 0.240891 0.639745
vt 0.256176 0.616449
vt 0.237336 0.635267
vt 0.312238 0.921310
vt 0.318943 0.912622
vt 0.310258 0.911021
vt 0.239351 0.641612
vt 0.236103 0.636906
vt 0.230523 0.639122
vt 0.384295 0.365491
vt 0.370950 0.386411
vt 0.382628 0.392191
vt 0.363603 0.363098
vt 0.374506 0.361238
vt 0.361010 0.350326
vt 0.351340 0.354109
vt 0.356228 0.358973
vt 0.319810 0.902274
vt 0.374910 0.360570
vt 0.373606 0.352912
vt 0.298299 0.904897
vt 0.297235 0.915403
vt 0.292883 0.929395
vt 0.300126 0.936742
vt 0.090364 0.639474
vt 0.087496 0.655169
vt 0.100028 0.655002
vt 0.191517 0.323294
vt 0.193587 0.320702
vt 0.187799 0.316105
vt 0.299602 0.898582
vt 0.277629 0.925354
vt 0.287545 0.925961
vt 0.282922 0.909151
vt 0.389296 0.371218
vt 0.391412 0.394710
vt 0.239869 0.649688
vt 0.214098 0.665202
vt 0.223294 0.315696
vt 0.238837 0.302667
vt 0.220485 0.306955
vt 0.359910 0.337677
vt 0.348210 0.348354
vt 0.366658 0.344889
vt 0.083658 0.631887
vt 0.081420 0.642936
vt 0.191524 0.353697
vt 0.182196 0.360441
vt 0.348409 0.331976
vt 0.294388 0.907592
vt 0.070290 0.625567
vt 0.066713 0.629887
vt 0.239091 0.302764
vt 0.233901 0.315967
vt 0.250383 0.297232
vt 0.257260 0.284592
vt 0.060766 0.631546
vt 0.368563 0.337930
vt 0.137151 0.165320
vt 0.116498 0.167400
vt 0.130791 0.170660
vt 0.379137 0.353936
vt 0.266355 0.289226
vt 0.395159 0.330024
vt 0.386809 0.335741
vt 0.399453 0.336255
vt 0.383047 0.340369
vt 0.391203 0.342266
vt 0.265110 0.898655
vt 0.254551 0.911809
vt 0.267245 0.913997
vt 0.373752 0.333714
vt 0.281719 0.903529
vt 0.220304 0.326434
vt 0.233718 0.327577
vt 0.226217 0.340355
vt 0.216024 0.334903
vt 0.215113 0.341325
vt 0.243962 0.320098
vt 0.088622 0.621255
vt 0.097417 0.636577
vt 0.250793 0.899118
vt 0.243535 0.913159
vt 0.283123 0.275526
vt 0.362052 0.324874
vt 0.208144 0.338364
vt 0.198797 0.326656
vt 0.207985 0.353025
vt 0.245757 0.655131
vt 0.208603 0.698788
vt 0.185275 0.695573
vt 0.265097 0.898343
vt 0.281702 0.903232
vt 0.283307 0.891719
vt 0.144877 0.157064
vt 0.144685 0.151000
vt 0.142686 0.145612
vt 0.129372 0.150031
vt 0.282342 0.903304
vt 0.292903 0.898572
vt 0.433165 0.324937
vt 0.149527 0.141777
vt 0.142212 0.137895
vt 0.414292 0.327674
vt 0.417570 0.323123
vt 0.070670 0.615195
vt 0.129188 0.377231
vt 0.129664 0.387951
vt 0.133293 0.365893
vt 0.144942 0.165016
vt 0.213404 0.329552
vt 0.237769 0.335914
vt 0.134835 0.403333
vt 0.122779 0.398604
vt 0.229520 0.360027
vt 0.225754 0.347636
vt 0.225203 0.356889
vt 0.239658 0.892493
vt 0.018517 0.646526
vt 0.008058 0.648067
vt 0.008836 0.653761
vt 0.288058 0.879732
vt 0.229705 0.677981
vt 0.014972 0.644366
vt 0.296052 0.884999
vt 0.226812 0.893363
vt 0.496667 0.680451
vt 0.489555 0.668853
vt 0.478291 0.669831
vt 0.091138 0.612193
vt 0.502754 0.676292
vt 0.505065 0.669362
vt 0.493935 0.664653
vt 0.094585 0.615508
vt 0.223318 0.699501
vt 0.143309 0.406377
vt 0.157201 0.158360
vt 0.221558 0.370905
vt 0.028016 0.648247
vt 0.470556 0.671958
vt 0.461979 0.667700
vt 0.475413 0.663942
vt 0.477774 0.672204
vt 0.094279 0.599521
vt 0.095608 0.613890
vt 0.028846 0.640397
vt 0.224678 0.405584
vt 0.222790 0.395331
vt 0.225236 0.888479
vt 0.238078 0.889405
vt 0.237410 0.868889
vt 0.252281 0.439719
vt 0.246381 0.428634
vt 0.244291 0.434540
vt 0.228786 0.369890
vt 0.021319 0.653273
vt 0.297162 0.872404
vt 0.159612 0.399119
vt 0.494455 0.688755
vt 0.289142 0.879776
vt 0.028409 0.186529
vt 0.038460 0.180079
vt 0.027525 0.169052
vt 0.020606 0.175316
vt 0.026976 0.602913
vt 0.015379 0.594770
vt 0.017052 0.604454
vt 0.057399 0.233842
vt 0.231260 0.390304
vt 0.234396 0.407023
vt 0.481505 0.680954
vt 0.034996 0.199839
vt 0.062159 0.243117
vt 0.023692 0.208356
vt 0.034966 0.199842
vt 0.090017 0.592433
vt 0.077094 0.596822
vt 0.033159 0.992502
vt 0.031343 0.982099
vt 0.029287 1.000000
vt 0.043628 0.992493
vt 0.232426 0.386612
vt 0.034797 0.982070
vt 0.016373 0.611688
vt 0.029321 0.614643
vt 0.101171 0.601830
vt 0.102535 0.610092
vt 0.111041 0.594327
vt 0.028730 0.227346
vt 0.142464 0.409627
vt 0.157990 0.417587
vt 0.159492 0.421156
vt 0.509390 0.692931
vt 0.037876 0.604515
vt 0.011308 0.221206
vt 0.021453 0.595168
vt 0.044591 0.655125
vt 0.109529 0.966579
vt 0.021108 0.623122
vt 0.363906 0.974480
vt 0.355624 0.970345
vt 0.112390 0.587823
vt 0.365868 0.969192
vt 0.366986 0.960151
vt 0.126093 0.593566
vt 0.363880 0.954952
vt 0.107383 0.578017
vt 0.367359 0.958129
vt 0.135976 0.587854
vt 0.151362 0.828247
vt 0.096903 0.573891
vt 0.117267 0.563276
vt 0.106842 0.546097
vt 0.098344 0.556016
vt 0.392099 0.957992
vt 0.022780 0.953381
vt 0.400597 0.164808
vt 0.389566 0.175302
vt 0.395916 0.185029
vt 0.400336 0.179287
vt 0.405291 0.168701
vt 0.405845 0.157711
vt 0.020085 0.785491
vt 0.015733 0.791284
vt 0.023048 0.794083
vt 0.028737 0.763462
vt 0.015091 0.764435
vt 0.025783 0.774108
vt 0.020828 0.773826
vt 0.426417 0.146464
vt 0.420428 0.121493
vt 0.400173 0.131284
vt 0.411606 0.156145
vt 0.232009 0.175044
vt 0.217454 0.185105
vt 0.230708 0.194497
vt 0.025424 0.696196
vt 0.012737 0.711720
vt 0.031820 0.715715
vt 0.043605 0.699593
vt 0.048858 0.686610
vt 0.028787 0.893284
vt 0.010308 0.883774
vt 0.010739 0.899630
vt 0.028385 0.681626
vt 0.309950 0.067509
vt 0.308724 0.087804
vt 0.315977 0.083328
vt 0.291944 0.083861
vt 0.248644 0.580784
vt 0.232795 0.577201
vt 0.239902 0.609692
vt 0.045376 0.670224
vt 0.052082 0.674963
vt 0.052402 0.675057
vt 0.065988 0.688742
vt 0.075814 0.676657
vt 0.310806 0.102515
vt 0.441459 0.119927
vt 0.466367 0.130221
vt 0.461551 0.115517
vt 0.239751 0.609724
vt 0.226502 0.601885
vt 0.225157 0.621711
vt 0.262406 0.594708
vt 0.256528 0.616171
vt 0.248250 0.610423
vt 0.230330 0.631279
vt 0.069553 0.663860
vt 0.489848 0.144622
vt 0.475114 0.143147
vt 0.485264 0.128942
vt 0.256296 0.616493
vt 0.040593 0.893953
vt 0.103405 0.662450
vt 0.487098 0.140637
vt 0.269991 0.618804
vt 0.055061 0.882512
vt 0.457111 0.059275
vt 0.446791 0.073563
vt 0.468368 0.073574
vt 0.227160 0.293948
vt 0.219780 0.281703
vt 0.385982 0.407242
vt 0.496146 0.135893
vt 0.208917 0.299582
vt 0.213986 0.304633
vt 0.490221 0.144338
vt 0.215082 0.934268
vt 0.206153 0.914994
vt 0.188141 0.930026
vt 0.199435 0.949742
vt 0.282896 0.937580
vt 0.237914 0.279671
vt 0.250812 0.268472
vt 0.250227 0.281243
vt 0.236947 0.923486
vt 0.233270 0.934914
vt 0.119297 0.661830
vt 0.112720 0.653106
vt 0.212443 0.313489
vt 0.398980 0.744302
vt 0.400218 0.726939
vt 0.386721 0.747102
vt 0.100547 0.654667
vt 0.112999 0.651565
vt 0.406731 0.732178
vt 0.263411 0.272497
vt 0.117952 0.174598
vt 0.108822 0.175175
vt 0.112654 0.186553
vt 0.270323 0.257682
vt 0.413761 0.718760
vt 0.443678 0.028172
vt 0.441994 0.035882
vt 0.465449 0.036376
vt 0.216963 0.325368
vt 0.217132 0.901687
vt 0.375377 0.350941
vt 0.463550 0.026840
vt 0.428615 0.670897
vt 0.419213 0.679984
vt 0.386857 0.358371
vt 0.438501 0.751630
vt 0.442037 0.670441
vt 0.393783 0.375458
vt 0.210140 0.330105
vt 0.399336 0.361976
vt 0.429784 0.689587
vt 0.385290 0.326520
vt 0.209338 0.329974
vt 0.278858 0.267215
vt 0.351979 0.327584
vt 0.367714 0.328070
vt 0.383321 0.324054
vt 0.393710 0.325376
vt 0.201758 0.897116
vt 0.198820 0.908609
vt 0.301869 0.888400
vt 0.308000 0.886233
vt 0.359209 0.319589
vt 0.367234 0.321939
vt 0.380472 0.314636
vt 0.119618 0.206510
vt 0.115648 0.204355
vt 0.115975 0.220942
vt 0.264926 0.881089
vt 0.250780 0.882573
vt 0.250087 0.880580
vt 0.264301 0.880036
vt 0.257745 0.860323
vt 0.277591 0.376526
vt 0.285147 0.366112
vt 0.275280 0.357536
vt 0.261069 0.350104
vt 0.257649 0.360328
vt 0.293212 0.376392
vt 0.305971 0.367097
vt 0.295029 0.309451
vt 0.285499 0.315154
vt 0.295930 0.333462
vt 0.324491 0.389491
vt 0.315731 0.361062
vt 0.314230 0.390168
vt 0.289722 0.400464
vt 0.374792 0.150235
vt 0.359193 0.177612
vt 0.367329 0.172810
vt 0.381312 0.155913
vt 0.330792 0.399990
vt 0.184245 0.536315
vt 0.193601 0.528560
vt 0.174598 0.525448
vt 0.391598 0.204236
vt 0.383607 0.193529
vt 0.374017 0.203564
vt 0.382382 0.212507
vt 0.088031 0.982609
vt 0.079167 0.975101
vt 0.083229 0.991260
vt 0.440674 0.443201
vt 0.442610 0.433086
vt 0.427745 0.452357
vt 0.410600 0.455762
vt 0.425217 0.432283
vt 0.411737 0.434041
vt 0.215368 0.529811
vt 0.218212 0.526416
vt 0.208593 0.519330
vt 0.201248 0.529299
vt 0.373765 0.101386
vt 0.357452 0.108594
vt 0.377040 0.128437
vt 0.010987 0.799966
vt 0.009779 0.807787
vt 0.023967 0.803242
vt 0.019168 0.796666
vt 0.019014 0.810841
vt 0.364032 0.093891
vt 0.354730 0.077662
vt 0.346356 0.097737
vt 0.363968 0.093573
vt 0.392126 0.111376
vt 0.215748 0.521704
vt 0.027209 0.783107
vt 0.374582 0.091622
vt 0.368467 0.082997
vt 0.213374 0.543882
vt 0.323150 0.182078
vt 0.313890 0.180162
vt 0.318197 0.187070
vt 0.317392 0.177085
vt 0.395588 0.096972
vt 0.392390 0.110874
vt 0.225413 0.508096
vt 0.220724 0.515860
vt 0.224774 0.525936
vt 0.078231 0.745406
vt 0.080497 0.749212
vt 0.103251 0.739895
vt 0.029351 0.798368
vt 0.021718 0.845054
vt 0.022684 0.824631
vt 0.014988 0.820333
vt 0.031726 0.764031
vt 0.026960 0.773999
vt 0.233725 0.524721
vt 0.041413 0.789008
vt 0.230715 0.554080
vt 0.108393 0.742406
vt 0.227309 0.529901
vt 0.384077 0.081116
vt 0.218809 0.563663
vt 0.364326 0.068139
vt 0.037500 0.829495
vt 0.038491 0.809658
vt 0.024177 0.803131
vt 0.029980 0.820788
vt 0.415144 0.096927
vt 0.411988 0.112409
vt 0.032212 0.715994
vt 0.021869 0.728520
vt 0.047126 0.719590
vt 0.384026 0.080734
vt 0.411769 0.112617
vt 0.398410 0.077308
vt 0.053164 0.522733
vt 0.033893 0.518372
vt 0.055410 0.527525
vt 0.046492 0.518178
vt 0.074165 0.716424
vt 0.067537 0.723876
vt 0.087344 0.725353
vt 0.238263 0.562959
vt 0.064473 0.517761
vt 0.056877 0.706538
vt 0.115081 0.730000
vt 0.393397 0.070509
vt 0.383245 0.079135
vt 0.397869 0.076674
vt 0.040036 0.841027
vt 0.443181 0.141879
vt 0.031693 0.856816
vt 0.093050 0.711322
vt 0.415130 0.096248
vt 0.416560 0.074818
vt 0.098827 0.722604
vt 0.119386 0.738537
vt 0.009641 0.694617
vt 0.434216 0.109349
vt 0.289156 0.471666
vt 0.293073 0.461000
vt 0.276787 0.455514
vt 0.087106 0.704717
vt 0.382179 0.045385
vt 0.357528 0.030289
vt 0.365986 0.047117
vt 0.092887 0.710754
vt 0.301973 0.465899
vt 0.164794 0.482025
vt 0.398062 0.027833
vt 0.377891 0.016792
vt 0.307078 0.481651
vt 0.401825 0.061643
vt 0.107496 0.709260
vt 0.293430 0.480000
vt 0.385281 0.057874
vt 0.200399 0.606732
vt 0.196468 0.593476
vt 0.190511 0.606805
vt 0.245685 0.572814
vt 0.131713 0.722363
vt 0.078139 0.691934
vt 0.398346 0.076792
vt 0.182913 0.598700
vt 0.188852 0.614157
vt 0.434972 0.107402
vt 0.438499 0.096365
vt 0.427642 0.084718
vt 0.126268 0.812718
vt 0.107624 0.805500
vt 0.124248 0.825223
vt 0.075776 0.810313
vt 0.057501 0.801394
vt 0.062392 0.812720
vt 0.082841 0.763462
vt 0.077632 0.769998
vt 0.082729 0.783672
vt 0.032960 0.871111
vt 0.082203 0.826271
vt 0.046858 0.088418
vt 0.053640 0.091450
vt 0.060309 0.062185
vt 0.447244 0.087498
vt 0.220984 0.608230
vt 0.203919 0.605795
vt 0.211228 0.614000
vt 0.205253 0.617881
vt 0.126906 0.987405
vt 0.127891 0.973401
vt 0.107710 0.982560
vt 0.268514 0.580224
vt 0.435157 0.057760
vt 0.092240 0.778765
vt 0.097716 0.680465
vt 0.200232 0.618835
vt 0.313965 0.491847
vt 0.203158 0.180775
vt 0.175934 0.175044
vt 0.183169 0.185627
vt 0.038971 0.110075
vt 0.298416 0.092517
vt 0.439149 0.098834
vt 0.434409 0.109407
vt 0.105011 0.797307
vt 0.078283 0.691787
vt 0.097206 0.814545
vt 0.042645 0.883351
vt 0.097771 0.680168
vt 0.425044 0.047403
vt 0.018739 0.115268
vt 0.103256 0.696863
vt 0.376883 0.705311
vt 0.371646 0.691565
vt 0.353961 0.682490
vt 0.024228 0.094241
vt 0.219452 0.627015
vt 0.110903 0.678863
vt 0.398193 0.047963
vt 0.103422 0.855128
vt 0.074249 0.841157
vt 0.084896 0.857586
vt 0.110784 0.784974
vt 0.149296 0.976118
vt 0.012395 0.096851
vt 0.092798 0.869501
vt 0.392955 0.699526
vt 0.388550 0.682797
vt 0.110893 0.678101
vt 0.213135 0.645440
vt 0.202241 0.640136
vt 0.197932 0.661590
vt 0.399130 0.667108
vt 0.410480 0.676386
vt 0.441680 0.035807
vt 0.435303 0.057615
vt 0.129627 0.670381
vt 0.119307 0.662746
vt 0.123340 0.683624
vt 0.248230 0.640631
vt 0.131195 0.661067
vt 0.005889 0.076016
vt 0.003402 0.112934
vt 0.208481 0.300061
vt 0.415103 0.696960
vt 0.185098 0.323553
vt 0.402979 0.707928
vt 0.392116 0.112173
vt 0.275467 0.357326
vt 0.301376 0.349476
vt 0.295524 0.334925
vt 0.268177 0.342299
vt 0.278804 0.328459
vt 0.261243 0.349917
vt 0.313514 0.334870
vt 0.303444 0.347230
vt 0.255597 0.337267
vt 0.278369 0.328135
vt 0.295390 0.333759
vt 0.309737 0.364317
vt 0.318615 0.357048
vt 0.265662 0.377710
vt 0.257110 0.361015
vt 0.467779 0.392169
vt 0.473086 0.370109
vt 0.466203 0.378406
vt 0.268904 0.310715
vt 0.482692 0.376258
vt 0.482313 0.386545
vt 0.480849 0.356459
vt 0.471255 0.351440
vt 0.494495 0.366052
vt 0.274649 0.395010
vt 0.289000 0.400348
vt 0.448370 0.414649
vt 0.459242 0.414557
vt 0.265393 0.395338
vt 0.478091 0.335189
vt 0.480177 0.403427
vt 0.372010 0.186272
vt 0.373666 0.203601
vt 0.498232 0.343913
vt 0.506669 0.369010
vt 0.507545 0.347526
vt 0.488279 0.356926
vt 0.499967 0.368826
vt 0.287061 0.301568
vt 0.138734 0.941039
vt 0.144414 0.936014
vt 0.135371 0.934010
vt 0.471416 0.424680
vt 0.270050 0.401041
vt 0.284465 0.407354
vt 0.334942 0.330099
vt 0.379425 0.182100
vt 0.380289 0.169589
vt 0.069921 0.955266
vt 0.054890 0.971238
vt 0.068110 0.969353
vt 0.486328 0.376406
vt 0.484441 0.386526
vt 0.503406 0.393370
vt 0.454549 0.424521
vt 0.448378 0.414990
vt 0.487208 0.321772
vt 0.502336 0.326393
vt 0.480555 0.403093
vt 0.156336 0.885577
vt 0.142851 0.877465
vt 0.142484 0.882488
vt 0.303493 0.288371
vt 0.137005 0.945770
vt 0.315908 0.294583
vt 0.314120 0.334418
vt 0.335435 0.329168
vt 0.319646 0.403652
vt 0.069652 0.979189
vt 0.067327 0.981869
vt 0.290102 0.290715
vt 0.073387 0.970426
vt 0.132585 0.885972
vt 0.139089 0.871111
vt 0.488501 0.412482
vt 0.429200 0.421740
vt 0.495633 0.406779
vt 0.069144 0.993903
vt 0.063371 0.837803
vt 0.059581 0.846542
vt 0.063203 0.849712
vt 0.149294 0.901386
vt 0.295276 0.415915
vt 0.063689 0.858529
vt 0.078899 0.959605
vt 0.296039 0.416014
vt 0.056502 0.860939
vt 0.388523 0.143122
vt 0.071881 0.982241
vt 0.338915 0.310333
vt 0.496502 0.421569
vt 0.502211 0.408797
vt 0.470795 0.424835
vt 0.453974 0.426088
vt 0.460422 0.438438
vt 0.472670 0.304295
vt 0.492367 0.307316
vt 0.073970 0.990821
vt 0.388204 0.142800
vt 0.378861 0.130692
vt 0.374154 0.149259
vt 0.060944 0.870528
vt 0.310938 0.419150
vt 0.500305 0.418254
vt 0.397927 0.156395
vt 0.390482 0.159831
vt 0.443090 0.436397
vt 0.453701 0.426234
vt 0.110910 0.329333
vt 0.121368 0.335976
vt 0.113163 0.323641
vt 0.392569 0.199128
vt 0.083013 0.999170
vt 0.161278 0.910334
vt 0.461388 0.294476
vt 0.441021 0.304046
vt 0.455266 0.309421
vt 0.464672 0.319507
vt 0.476825 0.447669
vt 0.489910 0.439683
vt 0.326342 0.416795
vt 0.200078 0.544632
vt 0.194460 0.546956
vt 0.346864 0.099617
vt 0.106241 0.326456
vt 0.502457 0.306983
vt 0.009281 0.812963
vt 0.442772 0.446691
vt 0.461183 0.454747
vt 0.015271 0.817541
vt 0.471493 0.286945
vt 0.438782 0.286994
vt 0.314220 0.023924
vt 0.304990 0.007357
vt 0.307780 0.024459
vt 0.108197 0.308579
vt 0.112509 0.304375
vt 0.478859 0.468583
vt 0.450211 0.461152
vt 0.327901 0.440166
vt 0.492285 0.296142
vt 0.202094 0.569101
vt 0.444833 0.458979
vt 0.440707 0.443249
vt 0.226040 0.530468
vt 0.316229 0.044340
vt 0.315458 0.435744
vt 0.491451 0.458420
vt 0.444298 0.269886
vt 0.125054 0.448904
vt 0.122336 0.438064
vt 0.112441 0.440068
vt 0.113873 0.451600
vt 0.499114 0.293369
vt 0.428889 0.468177
vt 0.503757 0.296965
vt 0.405952 0.468457
vt 0.284012 0.450823
vt 0.311831 0.453349
vt 0.283642 0.437988
vt 0.456354 0.473749
vt 0.212811 0.585814
vt 0.447535 0.472731
vt 0.498022 0.283700
vt 0.471037 0.274113
vt 0.090859 0.281862
vt 0.103339 0.286950
vt 0.108992 0.271788
vt 0.432125 0.485395
vt 0.477102 0.476918
vt 0.464909 0.482341
vt 0.105797 0.263673
vt 0.131399 0.273134
vt 0.316816 0.462592
vt 0.164459 0.472953
vt 0.413407 0.479694
vt 0.097115 0.272389
vt 0.431314 0.485527
vt 0.443174 0.490739
vt 0.453024 0.483541
vt 0.084050 0.264391
vt 0.308708 0.474734
vt 0.094667 0.257122
vt 0.285514 0.148360
vt 0.294974 0.138947
vt 0.282551 0.127528
vt 0.275945 0.139687
vt 0.297623 0.127039
vt 0.292371 0.116830
vt 0.028850 0.407124
vt 0.042273 0.420728
vt 0.046082 0.410810
vt 0.389720 0.459660
vt 0.371473 0.445156
vt 0.352815 0.445436
vt 0.046876 0.389886
vt 0.032253 0.391123
vt 0.356763 0.432955
vt 0.354933 0.457870
vt 0.371649 0.465317
vt 0.017299 0.398639
vt 0.413791 0.602648
vt 0.408080 0.614428
vt 0.420271 0.607994
vt 0.413159 0.590050
vt 0.414875 0.574121
vt 0.397190 0.581113
vt 0.418991 0.623722
vt 0.354664 0.473872
vt 0.355528 0.489107
vt 0.022927 0.381972
vt 0.041583 0.379489
vt 0.423470 0.594753
vt 0.005356 0.412058
vt 0.017471 0.414419
vt 0.016102 0.427971
vt 0.012908 0.382724
vt 0.025032 0.367401
vt 0.011903 0.366227
vt 0.012858 0.381959
vt 0.022903 0.381786
vt 0.424228 0.571788
vt 0.414762 0.558862
vt 0.144676 0.070384
vt 0.132781 0.083198
vt 0.144297 0.089612
vt 0.156862 0.076236
vt 0.423500 0.549843
vt 0.011041 0.470156
vt 0.019010 0.450764
vt 0.006103 0.437762
vt 0.413222 0.547247
vt 0.179607 0.136873
vt 0.185309 0.157592
vt 0.196830 0.145251
vt 0.023958 0.472156
vt 0.019441 0.485292
vt 0.108155 0.079889
vt 0.111569 0.094515
vt 0.121285 0.082035
vt 0.083566 0.124039
vt 0.097635 0.110263
vt 0.087090 0.109649
vt 0.193092 0.124196
vt 0.102129 0.068304
vt 0.117496 0.065555
vt 0.031437 0.484135
vt 0.184177 0.213803
vt 0.197428 0.212610
vt 0.175934 0.202938
vt 0.103185 0.898259
vt 0.113637 0.885924
vt 0.106968 0.884462
vt 0.140804 0.061460
vt 0.113421 0.871111
vt 0.069260 0.138261
vt 0.128967 0.040041
vt 0.140664 0.060211
vt 0.155119 0.047531
vt 0.155694 0.035053
vt 0.079583 0.522281
vt 0.102474 0.528313
vt 0.093528 0.518081
vt 0.138982 0.023337
vt 0.154941 0.016560
vt 0.103873 0.903577
vt 0.117570 0.065380
vt 0.086872 0.537175
vt 0.144498 0.010871
vt 0.492929 0.929980
vt 0.483826 0.918944
vt 0.479078 0.922587
vt 0.104492 0.059922
vt 0.201302 0.447135
vt 0.061324 0.151391
vt 0.203313 0.097835
vt 0.204524 0.115729
vt 0.210104 0.106880
vt 0.482152 0.944954
vt 0.081412 0.505937
vt 0.455724 0.909555
vt 0.472197 0.911458
vt 0.092084 0.910869
vt 0.497762 0.946070
vt 0.217665 0.482293
vt 0.230053 0.490390
vt 0.120175 0.029280
vt 0.138699 0.023170
vt 0.463669 0.928420
vt 0.090993 0.919213
vt 0.433934 0.878840
vt 0.448456 0.887972
vt 0.441515 0.869557
vt 0.051818 0.148565
vt 0.196945 0.429055
vt 0.448667 0.921050
vt 0.455261 0.909757
vt 0.442984 0.898814
vt 0.440397 0.887110
vt 0.430540 0.897277
vt 0.219828 0.084215
vt 0.461524 0.937223
vt 0.439186 0.801591
vt 0.444056 0.819355
vt 0.456761 0.804555
vt 0.241490 0.472405
vt 0.439353 0.801400
vt 0.453201 0.789870
vt 0.437347 0.781479
vt 0.433114 0.796110
vt 0.048043 0.168061
vt 0.044046 0.160741
vt 0.210124 0.083444
vt 0.103139 0.020676
vt 0.090215 0.030412
vt 0.106934 0.047207
vt 0.474416 0.951646
vt 0.075692 0.919082
vt 0.485378 0.966211
vt 0.444006 0.189038
vt 0.447427 0.163007
vt 0.437181 0.174372
vt 0.082721 0.055836
vt 0.089960 0.030670
vt 0.434754 0.352669
vt 0.439342 0.338971
vt 0.426670 0.349148
vt 0.450022 0.179051
vt 0.426154 0.899286
vt 0.418157 0.876015
vt 0.425459 0.788002
vt 0.402271 0.786597
vt 0.250096 0.459669
vt 0.421893 0.777650
vt 0.497708 0.946668
vt 0.427779 0.908044
vt 0.442204 0.156739
vt 0.426387 0.173584
vt 0.151587 0.523125
vt 0.138314 0.509051
vt 0.136422 0.534948
vt 0.402256 0.786868
vt 0.162101 0.538015
vt 0.236450 0.425109
vt 0.225090 0.413829
vt 0.245417 0.428269
vt 0.421028 0.365062
vt 0.152987 0.544097
vt 0.409092 0.808039
vt 0.231558 0.412570
vt 0.404765 0.794629
vt 0.461362 0.191561
vt 0.060650 0.220493
vt 0.111071 0.519086
vt 0.433101 0.945303
vt 0.461158 0.937839
vt 0.456430 0.205082
vt 0.433678 0.196074
vt 0.416742 0.178783
vt 0.417412 0.201241
vt 0.109391 0.531417
vt 0.035902 0.973954
vt 0.029736 0.957536
vt 0.420944 0.947182
vt 0.141454 0.557751
vt 0.152935 0.545451
vt 0.136905 0.535393
vt 0.430241 0.957415
vt 0.456451 0.205028
vt 0.203704 0.045721
vt 0.198956 0.061664
vt 0.207112 0.061731
vt 0.120051 0.549023
vt 0.120183 0.549049
vt 0.403902 0.794436
vt 0.387350 0.796097
vt 0.394556 0.816722
vt 0.408841 0.807632
vt 0.382351 0.840323
vt 0.389329 0.855715
vt 0.418543 0.966220
vt 0.426287 0.971780
vt 0.398818 0.832045
vt 0.410757 0.959845
vt 0.380941 0.827478
vt 0.382232 0.812969
vt 0.381426 0.838787
vt 0.044855 0.932623
vt 0.043533 0.937278
vt 0.049023 0.945937
vt 0.306072 0.803641
vt 0.305768 0.792492
vt 0.297018 0.804194
vt 0.098687 0.541160
vt 0.398966 0.940260
vt 0.377579 0.936034
vt 0.288874 0.813281
vt 0.369424 0.827003
vt 0.294855 0.827721
vt 0.310588 0.806801
vt 0.350168 0.854253
vt 0.106469 0.382362
vt 0.114302 0.381680
vt 0.102668 0.360548
vt 0.112744 0.357152
vt 0.105115 0.402659
vt 0.115205 0.403162
vt 0.104744 0.382629
vt 0.102396 0.360611
vt 0.094815 0.377519
vt 0.099936 0.349349
vt 0.110682 0.341816
vt 0.111172 0.420699
vt 0.105513 0.416690
vt 0.022021 0.540858
vt 0.028604 0.521611
vt 0.019357 0.515350
vt 0.090219 0.360134
vt 0.009410 0.509526
vt 0.504307 0.422003
vt 0.097860 0.334259
vt 0.091761 0.343866
vt 0.105747 0.329389
vt 0.006349 0.528753
vt 0.079896 0.372083
vt 0.089101 0.379020
vt 0.088077 0.361068
vt 0.069487 0.421707
vt 0.069406 0.436163
vt 0.085678 0.418109
vt 0.070027 0.410900
vt 0.089170 0.404514
vt 0.074812 0.390877
vt 0.088227 0.330322
vt 0.066127 0.375430
vt 0.071096 0.365380
vt 0.106558 0.443104
vt 0.059435 0.393844
vt 0.099233 0.332522
vt 0.089256 0.329562
vt 0.503438 0.447921
vt 0.495430 0.437275
vt 0.096611 0.302003
vt 0.081076 0.444141
vt 0.091344 0.345057
vt 0.074334 0.352605
vt 0.081181 0.341785
vt 0.080956 0.342165
vt 0.374027 0.434842
vt 0.390124 0.434417
vt 0.380602 0.416741
vt 0.063521 0.357590
vt 0.389337 0.445209
vt 0.067820 0.446583
vt 0.147675 0.219512
vt 0.149168 0.237133
vt 0.154987 0.227550
vt 0.078239 0.309458
vt 0.077239 0.322516
vt 0.076672 0.322542
vt 0.072583 0.333111
vt 0.063427 0.357953
vt 0.119571 0.453024
vt 0.080852 0.342099
vt 0.103120 0.287458
vt 0.371777 0.414025
vt 0.080082 0.461932
vt 0.052969 0.333187
vt 0.050555 0.391310
vt 0.388895 0.470167
vt 0.057316 0.316858
vt 0.046871 0.389836
vt 0.063021 0.357937
vt 0.046739 0.368945
vt 0.052054 0.350749
vt 0.064516 0.463784
vt 0.371181 0.477249
vt 0.083728 0.264941
vt 0.071655 0.478417
vt 0.067007 0.290146
vt 0.254139 0.193195
vt 0.270298 0.182009
vt 0.258907 0.175044
vt 0.078121 0.309526
vt 0.075586 0.013256
vt 0.057524 0.017320
vt 0.030546 0.349897
vt 0.051902 0.350902
vt 0.365919 0.553926
vt 0.354913 0.567553
vt 0.373504 0.571832
vt 0.376784 0.556695
vt 0.055901 0.296844
vt 0.041509 0.340424
vt 0.062530 0.480140
vt 0.072400 0.274248
vt 0.033012 0.330279
vt 0.038032 0.317810
vt 0.038859 0.317047
vt 0.263377 0.135355
vt 0.263558 0.144406
vt 0.275401 0.139375
vt 0.374849 0.540081
vt 0.064915 0.489054
vt 0.067623 0.263376
vt 0.393125 0.571023
vt 0.398247 0.560486
vt 0.387269 0.546128
vt 0.060727 0.267750
vt 0.211251 0.158441
vt 0.197219 0.172783
vt 0.054866 0.277839
vt 0.376274 0.530964
vt 0.041399 0.022586
vt 0.060888 0.267469
vt 0.249416 0.136542
vt 0.395670 0.541657
vt 0.393429 0.556374
vt 0.185952 0.158163
vt 0.377013 0.525607
vt 0.381847 0.530797
vt 0.394053 0.538108
vt 0.253702 0.125412
vt 0.156901 0.076153
vt 0.166205 0.058706
vt 0.224536 0.144811
vt 0.203120 0.130557
vt 0.391169 0.531217
vt 0.106604 0.120023
vt 0.127423 0.098021
vt 0.390094 0.526431
vt 0.384074 0.518689
vt 0.020110 0.325192
vt 0.017071 0.313077
vt 0.092452 0.130855
vt 0.096512 0.143674
vt 0.370697 0.517584
vt 0.234477 0.128421
vt 0.243579 0.142753
vt 0.249556 0.132432
vt 0.395881 0.531155
vt 0.403551 0.528568
vt 0.224420 0.132180
vt 0.235772 0.141667
vt 0.384232 0.510946
vt 0.419146 0.536409
vt 0.155848 0.049484
vt 0.400837 0.518714
vt 0.414578 0.528568
vt 0.026192 0.028142
vt 0.031928 0.022937
vt 0.018641 0.012716
vt 0.469291 0.885886
vt 0.477851 0.896141
vt 0.467668 0.877743
vt 0.473853 0.896837
vt 0.107264 0.089777
vt 0.104848 0.099390
vt 0.417245 0.521722
vt 0.467635 0.894092
vt 0.460723 0.885272
vt 0.463888 0.877576
vt 0.454000 0.539704
vt 0.449322 0.581393
vt 0.457956 0.591701
vt 0.096006 0.106547
vt 0.444247 0.549019
vt 0.418601 0.525763
vt 0.244212 0.124045
vt 0.227595 0.117936
vt 0.450982 0.867439
vt 0.472233 0.911436
vt 0.210426 0.107091
vt 0.439856 0.526656
vt 0.435158 0.534287
vt 0.101455 0.074428
vt 0.226459 0.117730
vt 0.477330 0.905613
vt 0.007081 0.036413
vt 0.025336 0.497404
vt 0.038128 0.490265
vt 0.459145 0.896366
vt 0.100148 0.068849
vt 0.007846 0.000000
vt 0.428061 0.522838
vt 0.193333 0.123832
vt 0.228578 0.105153
vt 0.426185 0.521429
vt 0.452150 0.873981
vt 0.085932 0.197947
vt 0.192289 0.111985
vt 0.438406 0.514766
vt 0.195434 0.416743
vt 0.179072 0.436418
vt 0.187782 0.437071
vt 0.450602 0.867518
vt 0.447162 0.862936
vt 0.126479 0.010635
vt 0.365468 0.063456
vt 0.377014 0.068501
vt 0.366617 0.050020
vt 0.055217 0.505937
vt 0.047502 0.516971
vt 0.382567 0.046731
vt 0.354898 0.016482
vt 0.357020 0.028572
vt 0.365718 0.012643
vt 0.377919 0.015921
vt 0.274467 0.126057
vt 0.275051 0.115614
vt 0.397950 0.028346
vt 0.382600 0.046366
vt 0.133034 0.857380
vt 0.146344 0.861293
vt 0.151967 0.847957
vt 0.261942 0.112376
vt 0.281781 0.102212
vt 0.381932 0.004710
vt 0.137160 0.845957
vt 0.134742 0.841074
vt 0.466008 0.103840
vt 0.448713 0.090858
vt 0.281259 0.101963
vt 0.123215 0.854314
vt 0.397741 0.013688
vt 0.397850 0.013391
vt 0.270985 0.099655
vt 0.118951 0.864099
vt 0.123280 0.848447
vt 0.134587 0.841154
vt 0.422863 0.033519
vt 0.144974 0.999288
vt 0.156567 0.986689
vt 0.398113 0.005297
vt 0.271555 0.098969
vt 0.281990 0.100373
vt 0.277156 0.084920
vt 0.430756 0.025681
vt 0.264451 0.083870
vt 0.254970 0.097891
vt 0.271028 0.099206
vt 0.246379 0.933989
vt 0.253604 0.949512
vt 0.264056 0.934285
vt 0.248544 0.113611
vt 0.081671 0.876530
vt 0.064444 0.869871
vt 0.082543 0.895820
vt 0.237939 0.112860
vt 0.248484 0.120023
vt 0.236746 0.108785
vt 0.227921 0.102904
vt 0.245019 0.082183
vt 0.093537 0.887628
vt 0.435789 0.014479
vt 0.236543 0.112154
vt 0.094949 0.897462
vt 0.252130 0.924445
vt 0.272085 0.046474
vt 0.263833 0.047020
vt 0.246050 0.933783
vt 0.267218 0.917665
vt 0.243948 0.913434
vt 0.255046 0.913452
vt 0.451836 0.018430
vt 0.249047 0.054851
vt 0.272073 0.046319
vt 0.269076 0.030067
vt 0.256839 0.024915
vt 0.235224 0.057740
vt 0.472540 0.019100
vt 0.461803 0.009657
vt 0.234825 0.057903
vt 0.220452 0.061290
vt 0.199422 0.826728
vt 0.188485 0.825091
vt 0.194732 0.837954
vt 0.238487 0.036951
vt 0.202120 0.896040
vt 0.215870 0.889718
vt 0.210159 0.083080
vt 0.237956 0.037275
vt 0.208339 0.844579
vt 0.219840 0.040993
vt 0.236757 0.037347
vt 0.223286 0.018906
vt 0.245407 0.016609
vt 0.219456 0.041008
vt 0.211228 0.029087
vt 0.210471 0.029382
vt 0.197522 0.031436
vt 0.376349 0.807108
vt 0.202523 0.018055
vt 0.193506 0.004492
vt 0.253919 0.023669
f 1/1 2/2 3/3
f 4/4 2/2 1/1
f 5/5 3/6 6/7
f 1/1 3/6 5/5
f 5/5 4/4 1/1
f 6/7 7/8 8/9
f 9/10 4/4 5/5
f 12/11 9/12 5/13 10/14
f 10/15 5/5 6/7
f 11/16 6/17 8/18
f 10/15 6/7 11/19
f 10/15 11/19 13/20
f 13/21 11/16 14/22
f 14/22 11/16 15/23
f 13/24 12/11 10/14
f 18/25 16/26 13/27 14/22
f 16/28 17/29 13/24
f 18/25 19/30 16/26
f 17/29 12/11 13/24
f 20/31 21/32 22/33
f 23/34 24/35 25/36
f 26/37 22/33 27/38
f 28/39 24/40 29/41
f 20/31 22/33 26/37
f 30/42 31/43 32/44
f 33/45 34/46 35/47
f 26/37 27/38 36/48
f 37/49 20/50 26/37
f 25/51 24/40 28/39
f 38/52 33/45 35/47
f 36/48 27/38 39/53
f 101/54 35/55 40/56 41/57
f 42/58 32/44 43/59
f 30/42 32/44 42/58
f 44/60 31/43 30/42
f 45/61 46/62 33/45
f 45/61 47/63 46/62
f 42/58 43/59 48/64
f 49/65 30/66 50/67
f 48/64 47/63 45/61
f 44/68 30/66 49/65
f 45/61 33/45 38/52
f 30/66 42/58 51/69
f 52/70 45/61 38/52
f 53/71 48/64 45/61
f 54/72 36/48 25/73
f 54/72 25/51 28/39
f 52/74 53/71 45/61
f 42/58 48/64 53/71
f 51/69 42/58 55/75
f 56/76 54/72 57/77
f 58/78 53/71 52/79
f 59/80 60/81 61/82
f 62/83 56/76 57/84
f 63/85 59/86 64/87
f 65/88 66/89 67/90
f 68/91 69/92 70/93
f 71/94 72/95 73/96
f 74/97 68/98 75/99
f 76/100 77/101 78/102
f 65/103 71/94 73/96
f 66/89 65/88 79/104
f 80/105 75/106 81/107
f 82/108 83/109 84/110
f 73/111 74/97 85/112
f 82/108 84/110 86/113
f 87/114 65/103 73/96
f 88/115 66/89 79/104
f 87/116 73/111 85/112
f 89/117 86/113 78/118
f 75/106 80/105 90/119
f 90/119 80/105 91/120
f 92/121 65/103 87/114
f 28/39 29/41 83/122
f 93/123 82/124 86/125
f 90/119 85/126 75/106
f 79/127 65/103 92/121
f 94/128 82/124 93/123
f 93/129 86/113 89/117
f 95/130 96/131 97/132
f 98/133 83/109 82/108
f 99/134 89/135 100/136
f 98/137 82/124 94/128
f 38/138 35/55 101/54
f 36/48 39/139 25/73
f 99/134 93/140 89/135
f 98/133 28/141 83/109
f 94/142 28/39 98/143
f 97/132 102/144 103/145
f 38/52 101/146 52/70
f 104/147 95/148 105/149
f 60/81 106/150 101/151
f 51/69 50/67 30/66
f 37/49 26/37 36/48 56/76
f 60/81 101/151 41/152
f 107/153 50/154 51/155
f 108/156 102/144 109/157
f 110/158 111/159 90/160
f 95/130 97/132 103/145
f 90/160 112/161 110/158
f 113/162 93/163 99/164
f 114/165 52/166 101/167
f 114/168 101/151 106/150
f 57/77 28/39 94/142
f 107/153 51/155 55/169
f 115/170 52/166 114/165
f 56/76 36/48 54/72
f 110/158 299/171 111/159
f 62/83 116/172 37/49
f 57/77 54/72 28/39
f 62/83 37/49 56/76
f 59/80 106/150 60/81
f 115/170 114/165 106/173
f 58/78 42/58 53/71
f 103/145 105/174 95/130
f 58/78 52/166 115/170
f 117/175 106/150 59/80
f 118/176 57/77 94/142
f 117/175 115/177 106/150
f 119/178 120/179 121/180
f 122/181 104/147 105/149
f 123/182 49/183 50/184
f 124/185 107/186 55/187
f 122/181 105/149 125/188
f 58/78 55/75 42/58
f 126/189 49/183 123/182
f 115/170 117/190 127/191
f 128/192 123/182 50/184
f 127/191 124/185 115/170
f 129/193 128/192 107/186
f 126/194 121/180 49/195
f 130/196 299/171 110/158
f 118/197 94/128 131/198
f 132/199 123/200 128/201
f 124/185 58/78 115/170
f 133/202 57/77 118/176
f 127/191 117/190 134/203
f 135/204 57/77 133/202
f 58/78 124/185 55/75
f 134/203 117/190 59/205
f 129/206 127/191 134/203
f 138/207 279/208 136/209 137/210
f 132/199 128/201 129/211
f 139/212 140/213 141/214
f 124/185 127/191 129/193 107/186
f 142/215 143/216 139/212
f 144/217 133/218 118/219
f 145/220 134/221 59/222
f 144/217 118/219 131/223
f 146/224 137/210 136/209
f 149/225 148/226 122/181 147/227
f 135/204 133/202 144/228
f 129/229 134/221 145/220
f 146/224 136/209 142/230
f 145/220 59/222 63/231
f 153/232 141/233 119/178 150/234
f 151/235 154/236 139/237 141/233
f 147/227 122/181 125/188
f 119/178 121/180 152/238
f 154/236 164/239 142/230 139/237
f 155/240 156/241 137/242
f 157/243 135/204 144/228
f 158/244 145/220 63/231
f 123/245 132/246 159/247
f 149/225 169/248 160/249 148/226
f 150/234 119/178 152/238
f 161/250 149/225 147/227
f 162/251 123/252 159/253
f 163/254 145/220 158/244
f 129/211 145/220 163/254
f 153/232 151/235 141/233
f 165/255 155/240 137/242
f 125/188 186/256 166/257 147/227
f 137/242 146/258 165/255
f 157/243 167/259 168/260
f 146/224 142/230 164/239
f 159/247 132/246 163/261
f 163/254 132/199 129/211
f 170/262 171/263 172/264
f 167/265 144/217 131/223
f 173/266 131/223 174/267
f 157/243 144/228 167/259
f 173/266 167/265 131/223
f 175/268 171/269 152/238
f 150/234 152/238 171/269
f 159/247 163/261 176/270
f 169/248 149/225 177/271
f 178/272 179/273 162/274
f 180/275 181/276 182/277
f 178/278 162/251 159/253
f 170/262 172/264 179/273
f 183/279 155/280 165/281
f 160/249 180/275 182/277
f 184/282 167/283 173/284
f 178/278 159/253 176/285
f 151/286 164/287 154/288
f 185/289 186/290 187/291
f 180/275 160/249 169/248
f 153/232 150/234 188/292
f 151/286 153/232 188/292
f 164/287 189/293 165/255 146/258
f 170/262 179/273 178/272
f 190/294 150/234 171/295
f 185/289 191/296 186/290
f 190/294 188/292 150/234
f 192/297 170/298 178/299
f 198/300 187/301 193/302 194/303
f 195/304 170/298 192/297
f 195/304 171/305 170/298
f 196/306 164/287 151/286
f 198/300 197/307 183/308 189/293
f 196/306 189/293 164/287
f 196/306 151/286 188/292
f 198/300 199/309 197/307
f 195/310 190/294 171/295
f 187/301 198/300 189/293
f 196/306 185/311 187/301
f 187/301 189/293 196/306
f 128/192 50/184 107/186
f 200/312 201/313 202/314
f 203/315 204/316 205/317
f 205/317 204/316 206/318
f 207/319 203/320 205/321
f 208/322 205/323 209/324
f 210/325 202/326 211/327
f 211/327 202/326 207/319
f 212/328 207/329 205/330
f 211/331 207/329 212/328
f 213/332 214/333 215/334
f 216/335 210/336 217/337
f 213/338 215/339 218/340
f 219/341 208/342 220/343
f 212/344 205/323 221/345
f 222/346 210/347 211/348
f 217/337 210/336 222/349
f 221/350 208/342 219/341
f 221/345 205/323 208/322
f 223/351 211/348 212/344
f 224/352 216/335 217/337
f 223/351 212/344 221/345
f 224/353 225/354 216/355
f 226/356 227/357 228/358
f 223/351 222/346 211/348
f 229/359 230/360 213/361
f 231/362 224/352 217/337
f 232/363 233/364 234/365
f 235/366 220/343 236/367
f 229/368 213/338 237/369
f 238/370 239/371 240/372
f 244/373 217/374 222/346 241/375
f 242/376 236/377 226/356
f 66/89 237/378 243/379 67/90
f 241/375 222/346 223/351
f 219/341 220/343 235/366
f 244/373 231/380 217/374
f 233/364 225/354 224/353 245/381
f 34/382 236/377 242/376
f 34/382 246/383 236/377
f 77/101 239/384 247/385
f 248/386 239/384 76/100
f 249/387 248/386 76/100
f 246/383 235/388 236/377
f 244/373 241/375 250/389
f 76/100 239/384 77/101
f 251/390 252/391 21/392
f 253/393 221/350 219/341
f 84/394 249/387 76/100
f 234/365 233/364 245/381
f 254/395 253/396 219/397
f 223/398 221/399 253/396
f 255/400 256/401 257/402
f 258/403 223/398 253/396
f 255/400 257/402 234/404
f 238/370 261/405 259/406 247/385
f 238/407 260/408 261/409
f 77/101 247/385 262/410
f 263/411 226/356 264/412
f 265/413 266/414 256/401
f 259/406 262/410 247/385
f 242/376 226/356 263/411
f 83/415 249/387 84/394
f 267/416 244/373 250/389
f 268/417 479/418 269/419
f 479/420 229/368 237/369 88/421
f 88/421 237/369 66/422
f 265/413 256/401 255/400
f 255/423 234/424 270/425
f 271/426 272/427 251/390
f 272/427 273/428 264/429
f 270/425 234/430 245/431
f 40/56 242/376 263/411
f 35/47 34/46 242/432
f 274/433 263/434 264/429
f 47/63 246/435 34/436 46/62
f 35/437 242/376 40/56
f 78/118 77/438 262/439
f 86/113 76/440 78/118
f 86/113 84/110 76/440
f 20/441 251/390 21/392
f 274/433 264/429 273/428
f 259/406 261/405 268/442
f 275/443 259/406 268/442
f 276/444 262/439 259/445
f 78/118 262/439 276/444
f 276/446 259/447 275/448
f 266/414 265/413 277/449
f 278/450 273/451 272/452
f 44/453 270/425 245/431
f 269/454 479/420 88/421
f 278/450 274/455 273/451
f 44/453 245/431 31/456
f 269/419 275/448 268/417
f 279/457 266/414 277/449
f 280/458 271/459 251/460
f 284/461 40/56 263/411
f 281/462 278/463 272/464
f 263/411 274/465 284/461
f 282/466 269/454 88/421
f 283/467 78/118 276/444
f 280/468 251/390 20/441
f 269/419 282/469 275/448
f 283/467 89/117 78/118
f 41/57 40/56 284/461
f 274/455 278/450 285/470
f 286/471 20/472 37/49
f 280/473 20/472 287/474
f 288/475 284/461 274/476
f 41/57 284/461 288/475
f 79/104 282/469 88/115
f 288/477 274/455 285/470
f 289/478 290/479 79/104
f 282/469 276/446 275/448
f 287/474 20/472 286/471
f 279/480 277/481 136/482
f 291/483 112/484 91/485
f 116/172 286/471 37/49
f 292/486 276/446 282/469
f 282/469 79/104 292/486
f 285/470 278/450 281/487
f 120/179 49/488 121/180
f 293/489 89/117 283/467
f 280/458 287/490 281/462
f 120/179 44/491 49/488
f 290/479 292/486 79/104
f 298/492 295/493 296/494 294/495
f 297/496 286/497 116/498
f 130/196 289/499 299/171
f 303/500 290/479 130/501
f 287/474 286/471 297/502
f 110/158 112/161 291/503
f 130/196 290/504 289/499
f 303/500 292/486 290/479
f 293/505 291/506 298/492
f 100/136 89/135 293/505
f 61/507 41/57 288/475
f 293/505 110/158 291/506
f 61/507 60/508 41/57
f 300/509 294/510 100/511
f 99/164 100/511 294/510
f 100/511 298/512 300/509
f 301/513 303/500 130/501
f 300/509 298/512 294/514
f 293/505 298/492 100/136
f 62/515 135/516 297/496 116/498
f 285/517 281/518 302/519
f 110/158 301/520 130/196
f 283/467 292/521 301/522
f 301/522 292/521 303/523
f 302/524 281/462 168/260
f 64/87 61/507 288/475
f 157/525 297/496 135/516
f 301/520 110/158 293/505 283/526
f 121/180 126/194 152/238
f 287/527 297/496 157/525
f 304/528 288/477 285/470
f 64/529 59/80 61/82
f 135/516 62/515 57/530
f 168/260 281/462 287/490
f 305/531 126/532 123/252
f 304/533 285/517 302/519
f 168/260 287/490 157/243
f 305/531 123/252 162/251
f 126/532 305/531 172/534
f 64/87 288/475 304/533
f 175/535 126/532 172/534
f 304/533 302/519 168/536
f 152/537 126/532 175/535
f 63/85 64/87 306/538
f 305/531 162/274 179/273
f 184/282 304/533 168/536
f 172/534 305/531 179/273
f 171/263 175/539 172/264
f 167/540 184/282 168/536
f 158/244 63/231 306/541
f 64/87 304/533 184/282
f 184/282 306/538 64/87
f 163/261 158/542 176/270
f 307/543 308/544 181/545
f 181/545 158/542 306/538
f 181/545 306/538 184/282
f 176/270 158/542 181/545
f 307/543 181/545 184/282
f 192/546 180/275 169/248
f 180/275 178/278 176/285
f 176/285 181/276 180/275
f 192/297 178/299 180/547
f 283/467 276/444 292/521
f 309/548 310/549 311/550
f 312/551 309/548 311/550
f 313/552 314/553 309/548
f 313/552 309/548 312/551
f 312/554 311/555 315/556
f 316/557 314/558 317/559
f 317/559 314/558 313/560
f 319/561 321/562 318/563 316/564
f 319/565 316/566 320/567
f 323/568 319/569 320/570 322/571
f 323/568 322/571 324/572
f 201/573 325/574 323/575
f 203/576 323/568 324/572
f 326/577 327/578 328/579
f 327/578 326/577 329/580
f 330/581 331/582 332/583
f 201/573 323/575 203/320
f 204/584 203/576 324/572 206/585
f 206/586 324/572 333/587
f 334/588 206/586 333/587
f 328/579 327/578 335/589
f 202/326 201/573 203/320
f 336/590 337/591 338/592
f 332/593 328/594 335/595
f 202/326 203/320 207/319
f 339/596 330/581 214/597
f 340/598 330/581 332/583
f 341/599 332/593 335/595
f 206/318 209/600 205/317
f 206/318 334/588 209/600
f 216/601 342/602 200/312
f 343/603 337/591 342/602
f 214/597 330/581 340/598
f 340/598 332/583 214/604
f 210/325 200/605 202/326
f 214/333 332/593 215/334
f 344/606 209/600 334/588
f 332/593 341/599 215/334
f 345/607 343/603 342/602
f 345/607 342/602 216/601
f 339/596 214/597 240/608
f 216/609 200/605 210/325
f 209/600 344/606 227/357
f 346/610 347/611 348/612
f 208/322 209/324 220/343
f 240/372 349/613 339/614
f 228/358 227/357 344/606
f 220/343 209/324 227/615
f 239/371 349/613 240/372
f 225/616 343/603 345/607
f 240/372 214/617 350/618
f 225/616 345/607 216/619
f 346/620 356/621 351/622 352/623
f 236/367 220/343 227/615
f 225/354 233/364 343/624
f 353/625 349/613 239/371
f 354/626 353/625 355/627
f 360/628 356/621 346/620 348/629
f 357/630 252/631 344/606
f 228/358 344/606 252/631
f 239/371 355/627 353/625
f 358/632 240/372 350/618
f 248/633 355/634 239/635
f 264/412 228/636 252/637
f 264/412 226/356 228/636
f 249/638 355/634 248/633
f 355/627 359/639 354/626
f 226/356 236/377 227/357
f 361/640 357/641 362/642
f 359/639 363/643 354/626
f 249/638 359/644 355/634
f 240/372 358/632 238/370
f 264/429 252/391 272/427
f 238/370 247/385 239/371
f 364/645 351/646 356/647
f 238/370 358/632 260/648
f 365/649 356/621 360/628
f 24/35 359/644 249/638
f 241/375 223/650 250/389
f 366/651 364/645 356/647
f 251/390 272/427 252/391
f 27/38 361/652 362/653
f 254/654 219/341 235/366
f 29/41 24/40 249/655
f 22/33 21/656 361/652
f 254/654 235/366 246/657
f 22/33 361/652 27/38
f 260/648 358/632 368/658
f 250/389 223/398 258/403
f 47/659 254/654 246/657
f 27/38 362/653 23/660
f 258/403 253/396 367/661
f 367/661 253/396 254/395
f 261/409 260/408 368/662
f 29/663 249/387 83/415
f 231/664 244/373 267/416
f 368/662 268/417 261/409
f 369/665 250/389 258/403
f 369/665 267/416 250/389
f 31/456 224/352 231/362
f 39/53 27/38 23/34
f 47/63 367/666 254/667
f 370/668 366/669 356/621 365/649
f 31/456 267/670 369/671
f 31/456 231/362 267/670
f 245/431 224/352 31/456
f 39/53 23/34 25/36
f 369/665 258/403 367/666
f 31/672 369/665 32/673
f 43/674 367/666 47/63
f 369/665 367/666 43/674
f 33/675 46/676 34/677
f 279/457 365/649 266/414
f 48/64 43/674 47/63
f 43/674 32/673 369/665
f 271/459 280/458 281/462 272/464
f 270/425 140/213 371/678 255/423
f 255/423 371/678 372/679 265/413
f 140/213 270/425 44/453
f 120/179 140/213 44/453
f 143/216 372/680 371/681
f 139/212 143/216 371/681 140/213
f 141/214 120/179 119/178
f 140/213 120/179 141/214
f 136/482 372/680 143/216
f 142/230 136/209 143/682
f 373/683 374/684 375/685
f 376/686 377/687 375/685
f 373/683 378/688 374/684
f 379/689 374/684 378/688
f 380/690 381/691 382/692
f 383/693 384/694 379/689
f 385/695 379/689 378/688
f 383/693 379/689 385/695
f 385/695 378/688 386/696
f 387/697 384/698 388/699
f 387/697 388/699 389/700
f 390/701 383/693 385/695
f 391/702 390/703 385/704
f 392/705 507/706 383/707 390/708
f 311/709 310/710 393/711
f 394/712 395/713 396/714
f 397/715 398/716 399/717
f 404/718 400/719 392/720 390/721
f 401/722 402/723 403/724
f 393/725 405/726 406/727
f 396/714 398/716 397/715
f 311/555 393/725 407/728
f 406/727 405/726 408/729
f 401/722 409/730 402/723
f 397/731 399/732 409/733
f 401/722 403/724 410/734
f 411/735 392/720 400/719
f 407/728 393/725 406/727
f 315/556 311/555 407/728
f 313/560 312/554 412/736
f 409/730 401/722 413/737
f 317/559 313/560 412/736
f 414/738 397/731 409/733
f 404/718 390/721 415/739
f 416/740 407/741 406/742
f 315/743 407/741 416/740
f 420/744 413/737 401/722 410/745
f 406/746 408/747 417/748
f 312/554 315/556 412/736
f 414/738 409/733 413/737
f 400/749 404/750 418/751
f 416/752 412/736 315/556
f 418/753 419/754 400/755
f 412/736 316/756 317/757
f 421/758 406/746 417/748
f 316/756 412/736 422/759
f 404/718 415/739 423/760
f 418/751 404/750 423/761
f 419/762 421/758 417/748
f 424/763 414/738 413/737
f 423/760 415/739 425/764
f 422/759 412/736 416/752
f 397/731 414/738 426/765
f 427/766 419/754 418/753
f 428/767 406/768 421/769
f 428/767 422/759 416/752
f 424/763 413/737 420/744
f 429/770 410/745 430/771
f 429/770 420/744 410/745
f 428/767 416/752 406/768
f 320/772 316/773 422/774
f 424/775 426/765 414/738
f 430/776 318/563 321/562
f 427/766 428/767 421/769
f 427/766 421/769 419/754
f 431/777 424/763 420/744
f 432/778 426/779 424/780
f 433/781 426/779 432/778
f 434/782 428/783 427/784
f 425/764 331/582 435/785 423/760
f 422/774 428/783 434/782
f 436/786 432/778 424/780
f 320/772 422/774 437/787
f 438/788 418/751 423/761
f 436/789 424/790 431/791
f 439/792 427/766 418/753
f 336/590 321/562 319/561 325/793
f 439/792 418/753 438/794
f 440/795 434/782 427/784
f 429/796 454/797 431/777 420/744
f 440/795 427/784 439/798
f 437/787 422/774 434/782
f 322/571 320/772 437/787
f 435/799 438/788 423/761
f 325/800 319/569 323/568
f 441/801 430/771 321/562
f 442/802 443/803 4/804
f 437/787 434/782 444/805
f 445/806 446/807 447/808
f 444/805 434/782 440/809
f 442/802 448/810 443/803
f 442/811 4/4 9/10
f 445/806 723/812 449/813 446/807
f 429/770 430/771 441/801
f 450/814 448/810 442/802
f 451/815 436/789 431/791
f 452/816 439/798 438/788
f 442/802 9/12 12/11
f 453/817 442/802 12/11
f 455/818 436/789 451/815
f 333/587 322/571 437/787
f 329/819 456/820 457/821
f 452/816 440/795 439/798
f 458/822 435/785 331/582
f 459/823 438/788 435/799
f 460/824 437/787 444/805
f 441/801 321/562 336/590
f 328/594 331/582 425/764
f 451/815 431/825 454/797
f 457/821 448/826 450/827
f 429/796 441/828 462/829 461/830
f 461/830 454/797 429/796
f 333/831 437/832 460/833
f 459/834 435/835 458/836
f 332/593 331/582 328/594
f 330/581 458/822 331/582
f 324/572 322/571 333/587
f 444/837 440/838 452/839
f 450/814 442/802 453/817
f 329/819 457/821 450/827
f 325/574 201/573 337/840
f 459/834 458/836 463/841
f 459/823 452/816 438/788
f 17/842 453/843 12/844
f 464/845 461/830 462/829
f 347/611 454/797 461/830
f 327/846 329/847 465/848
f 465/848 329/847 466/849
f 466/849 329/819 450/827
f 337/591 336/590 325/793
f 464/850 347/851 461/852
f 330/581 463/853 458/822
f 352/854 451/815 454/797
f 444/837 452/839 467/855
f 468/856 460/824 444/805
f 469/857 466/849 450/827
f 469/858 450/814 453/817
f 338/859 441/860 336/861
f 347/611 352/854 454/797
f 469/862 453/843 17/842
f 335/589 327/578 465/863
f 462/864 441/865 338/592
f 470/866 467/855 452/839
f 333/587 460/867 334/588
f 459/834 473/868 470/866 452/839
f 342/869 337/840 201/573
f 468/870 334/588 460/867
f 471/871 451/815 352/854
f 472/872 469/862 17/842
f 468/856 444/805 467/873
f 353/874 463/875 330/876
f 474/877 472/872 17/842
f 200/312 342/602 201/313
f 472/878 466/849 469/857
f 466/849 335/595 465/848
f 475/879 468/856 467/873
f 476/880 451/815 471/871
f 353/881 330/882 339/883
f 475/884 467/855 470/866
f 473/868 459/834 463/841
f 16/26 474/877 17/842
f 341/599 335/595 466/849
f 472/878 341/599 466/849
f 347/851 464/850 348/885
f 472/872 474/877 477/886
f 349/887 353/881 339/883
f 353/874 354/888 463/875
f 334/588 468/870 344/606
f 352/854 347/611 346/610
f 474/877 16/26 19/30
f 354/888 473/889 463/875
f 475/890 344/606 468/870
f 472/878 477/891 218/340
f 215/339 341/599 472/878
f 477/891 474/892 19/893
f 218/340 215/339 472/878
f 470/894 473/889 478/895
f 351/896 471/871 352/897
f 478/898 357/899 475/890 470/900
f 357/899 344/606 475/890
f 230/901 214/333 213/332
f 218/340 477/891 19/893
f 357/899 478/898 362/902
f 243/903 218/904 19/30
f 350/618 214/905 230/360
f 363/906 473/889 354/888
f 362/653 478/895 363/906
f 237/378 218/907 243/379
f 237/369 213/338 218/340
f 363/906 478/895 473/889
f 361/640 252/391 357/641
f 479/418 230/360 229/359
f 479/418 350/618 230/360
f 358/632 350/618 479/418
f 23/660 362/653 363/906
f 21/392 252/391 361/640
f 368/662 358/632 479/418
f 363/906 359/908 23/660
f 368/662 479/418 268/417
f 24/35 23/34 359/644
f 318/563 430/776 410/909
f 375/910 481/911 382/912 480/913
f 374/684 481/911 375/910
f 482/914 480/913 382/912
f 480/913 376/915 375/910
f 379/689 481/911 374/684
f 377/687 373/683 375/685
f 483/916 382/692 481/917
f 484/918 376/915 480/913
f 482/919 382/920 381/691
f 481/917 379/921 384/922
f 485/923 373/683 377/924
f 484/925 377/926 376/927
f 484/918 480/913 482/919 486/928
f 487/929 377/926 484/925
f 483/916 481/917 384/922
f 488/930 487/929 484/925
f 489/931 485/932 377/926
f 487/929 494/933 489/931 377/926
f 381/691 486/928 482/919
f 491/934 386/935 378/688 373/683
f 484/925 486/936 490/937
f 380/690 382/692 483/916
f 485/923 492/938 491/934 373/683
f 492/939 485/932 489/931
f 493/940 488/930 484/925
f 495/941 384/698 383/942
f 388/699 384/698 495/941
f 492/939 489/931 496/943
f 490/937 493/940 484/925
f 500/944 496/945 489/946 494/947
f 512/948 381/691 380/690
f 486/928 381/691 512/948
f 497/949 491/950 492/951
f 493/940 490/937 498/952
f 491/934 497/953 499/954 386/935
f 387/955 483/916 384/922
f 501/956 502/957 388/699 495/941
f 389/958 388/959 502/960
f 487/961 488/962 503/963
f 504/964 490/937 486/965
f 509/966 492/939 496/943 505/967
f 503/963 488/962 493/968
f 499/969 497/970 506/971
f 399/972 512/948 380/690
f 503/963 494/947 487/961
f 506/973 497/949 492/951
f 402/974 380/690 483/975 387/976
f 391/977 385/695 386/696
f 507/706 501/956 495/941
f 507/706 495/941 383/707
f 508/978 502/960 501/979
f 398/980 512/948 399/972
f 504/964 486/965 395/713
f 508/978 510/981 502/960
f 402/974 399/972 380/690
f 500/944 494/947 503/963
f 509/982 506/971 492/983
f 493/940 498/952 511/984
f 395/713 486/965 512/985
f 398/716 395/713 512/985
f 503/963 493/968 513/986
f 508/978 501/979 507/987
f 490/937 504/964 498/952
f 513/986 493/968 511/984
f 510/988 508/989 514/990
f 515/991 499/969 506/971
f 386/935 499/954 516/992
f 514/990 508/989 517/993
f 518/994 389/958 502/960
f 516/995 391/977 386/696
f 517/993 508/989 507/996
f 387/697 389/700 519/997
f 310/710 510/981 514/998
f 403/999 402/974 387/976
f 520/1000 513/986 511/984
f 521/1001 503/963 513/986
f 515/991 506/971 509/982
f 498/1002 504/1003 522/1004
f 515/1005 509/966 523/1006
f 393/711 514/998 517/1007
f 519/1008 403/1009 387/1010
f 517/993 507/996 405/1011
f 310/710 514/998 393/711
f 518/994 502/960 510/981
f 396/714 395/713 398/716
f 524/1012 391/977 516/995
f 525/1013 521/1001 513/986
f 314/1014 519/997 389/700 518/1015
f 395/1016 522/1004 504/1017
f 525/1018 513/1019 520/1020
f 405/1021 507/706 392/705
f 393/711 517/1007 405/1022
f 310/710 518/994 510/981
f 499/969 515/991 526/1023
f 518/1015 310/549 309/548
f 526/1024 524/1025 516/1026
f 526/1024 516/1026 499/1027
f 522/1004 527/1028 498/1002
f 528/1029 498/952 527/1028
f 529/1030 391/977 524/1012
f 530/1031 390/703 391/702 529/1032
f 409/730 399/1033 402/723
f 511/984 498/952 528/1029
f 314/1014 518/1015 309/548
f 316/564 519/997 314/1014
f 520/1000 511/984 528/1029
f 531/1034 525/1018 520/1020
f 318/563 403/1009 519/1008
f 543/1035 523/1006 509/966 505/967
f 408/729 405/726 392/1036
f 395/1016 394/1037 532/1038
f 532/1038 527/1028 522/1004
f 408/729 392/1036 411/1039
f 532/1038 522/1004 395/1016
f 318/563 519/997 316/564
f 526/1024 515/1005 533/1040
f 524/1025 526/1024 534/1041
f 415/1042 390/1043 530/1044
f 410/909 403/1009 318/563
f 535/1045 520/1020 528/1046
f 536/1047 527/1028 532/1038
f 533/1040 515/1005 523/1006
f 537/1048 532/1038 394/1037
f 400/719 408/747 411/735
f 417/748 408/747 400/719
f 529/1030 524/1012 538/1049
f 533/1040 523/1006 539/1050
f 530/1031 529/1032 538/1051
f 396/714 537/1052 394/1053
f 419/1054 417/748 400/719
f 415/1042 530/1044 425/1055
f 534/1056 538/1049 524/1012
f 540/1057 528/1029 527/1028
f 541/1058 534/1041 526/1024
f 539/1059 523/1060 543/1061 542/1062
f 541/1058 526/1024 533/1040
f 544/1063 533/1040 539/1050
f 545/1064 537/1052 396/714
f 544/1063 539/1050 542/1065
f 545/1064 397/715 426/1066
f 545/1064 396/714 397/715
f 2/1067 541/1068 533/1069
f 540/1057 527/1028 536/1047
f 546/1070 532/1038 537/1048
f 326/1071 530/1031 538/1051
f 546/1072 537/1052 545/1064
f 3/1073 533/1040 544/1063
f 2/1074 533/1040 3/1073
f 326/577 425/1055 530/1044
f 538/1049 534/1056 541/1068
f 547/1075 540/1076 536/1077
f 546/1072 545/1064 446/1078
f 548/1079 532/1038 546/1070
f 549/1080 548/1079 546/1070
f 443/803 541/1068 2/1067
f 548/1081 536/1077 532/1082
f 538/1049 541/1068 456/1083
f 443/1084 2/2 4/4
f 448/810 541/1068 443/803
f 545/1064 426/1066 447/1085
f 547/1075 536/1077 550/1086
f 326/1071 538/1051 456/820
f 446/1087 545/1064 447/1085
f 551/1088 546/1072 446/1078
f 549/1089 546/1072 551/1088
f 550/1086 536/1077 548/1081
f 456/1083 541/1068 448/810
f 548/1081 552/1090 550/1086
f 456/1083 448/810 457/1091
f 552/1090 548/1081 553/1092
f 548/1093 549/1094 554/1095
f 329/819 326/1071 456/820
f 554/1095 553/1096 548/1093
f 554/1095 549/1094 551/1097
f 328/579 425/1055 326/577
f 554/1095 551/1097 555/1098
f 556/1099 557/1100 558/1101
f 559/1102 557/1103 560/1104
f 558/1101 676/1105 561/1106 556/1099
f 560/1104 557/1103 556/1107
f 562/1108 559/1102 560/1104
f 562/1108 563/1109 559/1102
f 564/1110 556/1099 561/1106
f 560/1111 556/1112 565/1113
f 562/1114 566/1115 563/1116
f 565/1113 556/1112 564/1117
f 566/1118 567/1119 563/1109
f 568/1120 561/1106 569/1121
f 568/1120 564/1110 561/1106
f 570/1122 562/1114 560/1111
f 565/1113 570/1122 560/1111
f 571/1123 565/1124 564/1110
f 571/1123 570/1125 565/1124
f 566/1115 562/1114 570/1122
f 572/1126 564/1110 568/1120
f 573/1127 577/1128 572/1129 568/1130
f 574/1131 567/1132 566/1115
f 575/1133 577/1134 573/1135 576/1136
f 578/1137 567/1132 574/1131
f 579/1138 574/1139 580/1140
f 578/1137 581/1141 567/1132
f 582/1142 583/1143 584/1144
f 578/1145 574/1139 579/1138
f 585/1146 578/1145 579/1138
f 586/1147 587/1148 588/1149
f 589/1150 590/1151 591/1152
f 582/1142 584/1144 592/1153
f 593/1154 588/1149 594/1155
f 595/1156 578/1145 585/1146
f 586/1157 588/1158 593/1159
f 596/1160 589/1161 597/1162
f 594/1155 577/1134 598/1163
f 591/1164 597/1162 589/1161
f 599/1165 70/93 589/1150
f 600/1166 598/1167 601/1168 582/1169
f 602/1170 603/1171 604/1172
f 605/1173 582/1169 592/1174
f 599/1175 589/1161 596/1160
f 594/1176 598/1167 600/1166
f 600/1166 582/1169 605/1173
f 606/1177 603/1171 602/1170
f 605/1173 592/1174 607/1178
f 596/1179 597/1180 608/1181
f 609/1182 593/1154 594/1155
f 68/98 74/97 610/1183
f 611/1184 70/93 599/1165
f 612/1185 613/1186 614/1187
f 615/1188 596/1179 608/1181
f 602/1170 604/1172 616/1189
f 602/1190 608/1181 606/1191
f 617/1192 599/1175 596/1160
f 617/1193 596/1179 615/1188
f 81/107 70/1194 611/1195
f 618/1196 600/1166 605/1197
f 619/1198 608/1181 602/1190
f 620/1199 599/1175 617/1192
f 75/99 68/98 70/1194
f 616/1200 604/1201 621/1202
f 620/1203 611/1184 599/1165
f 73/111 72/1204 74/97
f 622/1205 619/1198 602/1206
f 75/99 70/1194 81/107
f 616/1207 621/1208 96/1209
f 623/1210 612/1185 614/1187
f 625/1211 615/1188 608/1181 619/1198
f 624/1212 618/1213 605/1214
f 622/1205 602/1206 616/1207
f 81/107 611/1195 626/1215
f 624/1216 607/1217 612/1218 627/1219
f 626/1220 611/1184 620/1203
f 625/1211 619/1198 622/1205
f 628/1221 626/1220 620/1203
f 96/1209 622/1205 616/1207
f 629/1222 612/1185 623/1210
f 109/1223 102/1224 630/1225 618/1196
f 631/1226 615/1188 625/1211
f 620/1199 617/1192 632/1227
f 80/105 81/107 626/1215
f 633/1228 615/1188 631/1226
f 634/1229 620/1230 632/1231
f 97/1232 630/1225 102/1233
f 628/1234 620/1235 635/1236
f 85/112 74/97 75/99
f 635/1237 620/1230 634/1229
f 622/1238 96/131 636/1239
f 109/157 618/1213 624/1212
f 637/1240 612/1218 638/1241
f 637/1240 627/1219 612/1218
f 295/1242 80/105 626/1215
f 638/1241 612/1218 629/1243
f 633/1228 617/1244 615/1188
f 104/147 622/1205 636/1245
f 104/147 625/1211 622/1205
f 632/1231 617/1246 633/1247
f 636/1239 96/131 95/130
f 628/1221 296/494 295/493 626/1220
f 631/1248 625/1249 639/1250
f 91/485 80/105 295/1242
f 627/1219 637/1240 638/1251
f 639/1250 633/1252 631/1248
f 111/1253 85/126 90/119
f 92/1254 87/116 85/112
f 112/1255 90/119 91/120
f 104/147 636/1245 95/148
f 91/485 295/1242 291/483
f 296/1256 628/1234 635/1236
f 640/1257 633/1252 639/1250
f 641/1258 624/1212 627/1219
f 299/1259 85/126 111/1253
f 298/492 291/506 295/493
f 289/499 79/127 92/121
f 642/1260 627/1219 638/1251
f 296/1261 635/1237 634/1229
f 299/171 92/121 85/1262
f 633/1247 634/1229 632/1231
f 299/171 289/499 92/121
f 625/1249 643/1263 639/1250
f 641/1258 627/1219 642/1260
f 108/156 109/157 624/1212
f 643/1264 625/1265 104/147
f 94/128 93/123 113/1266
f 644/1267 634/1229 633/1247
f 640/1268 174/1269 644/1267 633/1247
f 108/156 624/1212 641/1258
f 645/1270 639/1250 643/1263
f 113/162 296/1271 634/1272
f 643/1264 104/147 122/181 148/1273
f 99/164 294/510 296/1271
f 103/145 102/144 108/156
f 646/1274 640/1275 639/1276
f 645/1277 643/1264 148/1273
f 113/1278 634/1229 644/1267
f 113/162 99/164 296/1271
f 647/1279 642/1280 638/1281
f 648/1282 639/1250 645/1270
f 644/1267 131/198 94/128 113/1266
f 174/267 640/1275 646/1274
f 646/1274 639/1276 648/1283
f 642/1284 647/1285 649/1286 641/1287
f 649/1286 108/156 641/1258
f 103/145 193/1288 125/1289 105/174
f 182/1290 308/1291 645/1277
f 103/1292 108/156 649/1286
f 182/1290 645/1277 148/1273 160/1293
f 186/290 125/1289 193/1288
f 308/544 648/1282 645/1270
f 174/1269 131/198 644/1267
f 173/266 174/267 646/1274
f 649/1286 194/1294 103/1292
f 646/1274 648/1283 307/543 173/284
f 199/1295 649/1286 647/1285
f 194/1294 193/1296 103/1292
f 161/1297 177/1298 149/1299
f 307/543 648/1282 308/544
f 187/291 186/290 193/1288
f 194/1294 649/1286 199/1295
f 161/1300 147/1301 166/1302
f 308/544 182/1303 181/545
f 195/304 177/1298 161/1297
f 177/1304 192/546 169/248
f 191/1305 166/257 186/256
f 161/1300 166/1302 191/1306
f 173/284 307/543 184/282
f 192/297 177/1298 195/304
f 198/1307 194/1294 199/1295
f 190/1308 161/1300 191/1306
f 190/294 195/310 161/1309
f 191/1306 188/292 190/1308
f 191/296 185/289 196/1310
f 188/292 191/1306 196/306
f 650/1311 500/1312 651/1313
f 651/1313 500/1312 503/1314
f 650/1311 652/1315 496/1316 500/1312
f 650/1317 651/1318 653/1319
f 654/1320 503/1314 521/1321
f 505/1322 496/1316 655/1323
f 652/1315 655/1323 496/1316
f 654/1320 651/1313 503/1314
f 652/1324 650/1325 653/1326
f 656/1327 653/1319 651/1318
f 657/1328 652/1324 653/1326
f 531/1329 521/1001 525/1013
f 659/1330 658/1331 654/1320 521/1321
f 659/1330 521/1321 531/1332
f 660/1333 652/1324 657/1328
f 656/1327 651/1318 654/1320
f 535/1045 531/1034 520/1020
f 657/1334 653/1335 656/1336
f 656/1327 654/1320 658/1331
f 661/1337 559/1338 655/1339
f 662/1340 661/1337 655/1339 652/1341
f 662/1340 652/1341 660/1342
f 663/1343 658/1331 659/1330
f 667/1344 660/1342 657/1334 664/1345
f 505/1322 655/1323 665/1346
f 662/1340 660/1342 666/1347
f 659/1348 531/1034 663/1349
f 543/1061 505/1322 665/1346
f 663/1349 531/1034 535/1045
f 664/1345 657/1334 656/1336
f 667/1344 666/1347 660/1342
f 668/1350 535/1351 528/1029
f 668/1352 663/1349 535/1045
f 655/1339 559/1338 665/1353
f 656/1336 658/1354 669/1355
f 668/1350 528/1029 540/1057
f 669/1355 664/1345 656/1336
f 663/1343 670/1356 658/1331
f 669/1355 658/1354 670/1357
f 558/1358 662/1359 666/1360
f 671/1361 664/1345 669/1355
f 665/1346 542/1062 543/1061
f 558/1358 661/1362 662/1359
f 672/1363 665/1353 559/1338
f 671/1364 667/1365 664/1366
f 7/8 542/1062 665/1346
f 558/1358 557/1103 661/1362
f 673/1367 663/1349 668/1352
f 673/1367 674/1368 663/1349
f 663/1343 674/1369 675/1370 670/1356
f 671/1371 666/1347 667/1344
f 3/6 544/1372 542/1062
f 669/1355 670/1373 675/1370
f 668/1352 540/1374 547/1075
f 675/1370 671/1361 669/1355
f 559/1102 661/1362 557/1103
f 7/8 6/7 3/6 542/1062
f 558/1358 666/1360 676/1375
f 672/1363 7/1376 665/1353
f 671/1361 675/1370 677/1377
f 676/1378 666/1347 671/1371
f 673/1367 668/1352 547/1075
f 672/1379 559/1102 563/1109
f 675/1370 674/1369 678/1380
f 569/1121 676/1381 671/1382
f 569/1121 671/1382 679/1383
f 680/1384 671/1361 677/1377
f 681/1385 7/1376 672/1363
f 682/1386 672/1379 563/1109
f 552/1387 547/1075 550/1086
f 683/1388 7/1376 681/1385
f 569/1121 561/1106 676/1381
f 684/1389 673/1367 547/1075
f 677/1377 675/1370 678/1380
f 679/1390 671/1391 680/1392
f 678/1380 674/1369 673/1393
f 8/18 7/1394 683/1395
f 573/1127 679/1383 576/1396
f 679/1383 680/1397 576/1396
f 681/1398 672/1399 682/1400
f 573/1127 569/1121 679/1383
f 685/1401 681/1398 682/1400
f 673/1393 684/1389 686/1402 678/1380
f 687/1403 576/1396 680/1397
f 688/1404 683/1388 681/1385
f 677/1377 687/1403 680/1384
f 547/1075 689/1405 684/1389
f 696/1406 687/1403 677/1377 583/1407
f 11/16 8/18 683/1395
f 568/1130 569/1121 573/1127
f 567/1119 682/1386 563/1109
f 583/1408 677/1377 678/1380
f 690/1409 552/1410 553/1411
f 689/1405 547/1075 552/1387
f 688/1412 681/1398 685/1401
f 15/1413 683/1388 688/1404
f 15/23 11/16 683/1395
f 691/1414 689/1405 552/1387
f 567/1415 581/1416 685/1401 682/1400
f 692/1417 688/1412 685/1401
f 684/1389 689/1405 693/1418
f 686/1419 584/1144 678/1420
f 694/1421 686/1402 684/1389
f 15/1422 688/1412 692/1417
f 695/1423 14/22 15/23
f 693/1424 689/1405 691/1414
f 690/1409 691/1425 552/1410
f 692/1426 685/1427 581/1141
f 694/1421 684/1389 693/1418
f 571/1123 564/1110 572/1126
f 576/1396 687/1403 696/1406
f 583/1428 678/1420 584/1144
f 18/25 14/22 695/1423
f 574/1131 566/1115 570/1122
f 695/1429 15/1422 697/1430
f 699/1431 15/1422 692/1417
f 697/1430 15/1422 699/1431
f 698/1432 691/1425 690/1409
f 598/1163 576/1433 696/1434
f 694/1435 709/1436 584/1144 686/1419
f 580/1140 570/1125 571/1123
f 697/1430 699/1431 700/1437
f 571/1438 572/1439 588/1149
f 697/1430 700/1440 701/1441 695/1429
f 601/1442 696/1406 583/1407 582/1443
f 571/1438 588/1149 587/1148
f 580/1140 574/1139 570/1125
f 702/1444 580/1445 571/1438
f 701/1441 18/1446 695/1429
f 703/1447 691/1448 698/1449
f 598/1163 575/1133 576/1433
f 700/1440 699/1450 704/1451
f 703/1447 705/1452 693/1453 691/1448
f 588/1149 572/1439 577/1134
f 694/1435 693/1453 705/1452
f 706/1454 18/1446 701/1441
f 692/1426 581/1141 595/1455
f 601/1456 598/1163 696/1434
f 590/1151 571/1438 587/1148
f 590/1151 589/1150 702/1444 571/1438
f 707/1457 700/1440 704/1451
f 595/1455 581/1141 578/1137
f 595/1455 699/1450 692/1426
f 598/1163 577/1134 575/1133
f 701/1441 700/1440 707/1457
f 708/1458 699/1450 595/1455
f 708/1458 704/1451 699/1450
f 706/1459 701/1460 707/1461
f 710/1462 590/1463 587/1464
f 711/1465 590/1463 710/1462
f 712/1466 710/1467 587/1148
f 709/1436 694/1435 705/1452
f 594/1155 588/1149 577/1134
f 713/1468 707/1457 704/1451
f 711/1465 710/1462 603/1469
f 584/1144 709/1436 592/1153
f 714/1470 710/1462 712/1471
f 603/1469 710/1462 714/1470
f 69/1472 580/1473 702/1474
f 613/1186 709/1436 705/1452
f 591/1152 590/1151 711/1475
f 586/1147 712/1466 587/1148
f 579/1476 580/1473 69/1472
f 713/1477 704/1451 708/1458
f 715/1478 716/1479 703/1447
f 705/1452 703/1447 716/1479
f 714/1470 712/1471 717/1480
f 69/92 702/1444 70/93
f 606/1481 711/1465 603/1469
f 613/1186 705/1452 614/1482
f 70/93 702/1444 589/1150
f 610/1483 585/1484 579/1476
f 717/1485 712/1466 586/1147
f 706/1459 19/30 18/25
f 716/1486 614/1482 705/1452
f 591/1487 711/1465 606/1481
f 67/1488 706/1459 707/1461
f 718/1489 708/1490 595/1156 585/1146
f 603/1491 714/1470 604/1201
f 610/1483 579/1476 69/1472
f 593/1492 717/1485 586/1147
f 606/1481 597/1180 591/1487
f 608/1181 597/1180 606/1481
f 713/1493 67/1488 707/1461
f 713/1477 708/1458 718/1494
f 67/1488 243/903 19/30 706/1459
f 592/1495 709/1436 613/1186
f 614/1482 716/1486 719/1496
f 713/1477 718/1494 720/1497
f 714/1470 717/1480 721/1498
f 604/1201 714/1470 721/1498
f 68/91 610/1499 69/92
f 607/1500 592/1495 613/1186
f 610/1483 74/1501 718/1494 585/1484
f 721/1498 621/1202 604/1201
f 74/1501 720/1497 718/1494
f 71/1502 713/1503 720/1504
f 630/1225 609/1182 594/1176 600/1166
f 621/1202 721/1498 717/1505
f 621/1202 717/1505 593/1506
f 67/90 713/1503 71/1502
f 612/1185 607/1500 613/1186
f 71/1502 720/1504 72/1204
f 65/88 67/90 71/1502
f 72/1204 720/1504 74/97
f 605/1173 607/1178 624/1507
f 593/1154 609/1182 97/1232
f 618/1196 630/1225 600/1166
f 96/131 621/1202 593/1506
f 96/131 593/1506 97/132
f 609/1182 630/1225 97/1232
f 455/818 426/1508 433/1509
f 455/818 447/1510 426/1508
f 455/1511 433/1512 432/778 436/786
f 445/1513 447/1510 455/818
f 551/1514 446/1515 555/1516
f 445/1513 455/818 476/880
f 555/1516 446/1515 449/1517
f 476/880 455/818 451/815
f 690/1409 553/1411 722/1518
f 722/1518 553/1411 554/1095
f 722/1518 554/1095 724/1519
f 724/1519 554/1095 555/1098
f 723/1520 445/1521 476/880
f 698/1522 690/1523 722/1524
f 725/1525 722/1518 724/1519
f 724/1519 555/1098 726/1526
f 726/1527 555/1516 449/1517
f 727/1528 722/1524 725/1529
f 727/1528 698/1522 722/1524
f 728/1530 464/1531 462/864
f 725/1525 724/1519 726/1532
f 338/592 728/1530 462/864
f 715/1533 698/1522 727/1528
f 729/1534 449/813 723/812
f 729/1535 726/1527 449/1517
f 725/1525 726/1532 730/1536
f 703/1537 698/1522 715/1533
f 734/1538 715/1533 727/1528 725/1539
f 343/603 338/592 337/591
f 731/1540 723/1520 476/880
f 348/885 464/850 728/1541 732/1542
f 729/1534 723/812 731/1540
f 733/1543 726/1527 729/1535
f 728/1530 338/592 343/603
f 730/1544 726/1545 733/1546
f 735/1547 729/1534 731/1540
f 736/1548 730/1544 733/1546
f 731/1540 476/880 471/871
f 733/1543 729/1535 735/1547
f 737/1549 725/1525 730/1536
f 736/1548 737/1549 730/1550
f 732/1551 728/1552 738/1553
f 734/1554 725/1525 737/1549
f 738/1555 728/1556 343/1557
f 739/1558 715/1478 734/1559
f 739/1560 734/1554 737/1549
f 731/1540 471/871 351/896
f 716/1479 715/1478 739/1558
f 719/1561 739/1560 737/1549 740/1562
f 735/1547 731/1540 351/896
f 232/1563 738/1555 343/1557
f 741/1564 733/1543 735/1547
f 719/1496 716/1486 739/1565
f 232/1563 343/1557 233/1566
f 732/1551 738/1553 742/1567
f 364/645 735/1547 351/896
f 741/1568 743/1569 736/1548 733/1546
f 360/628 348/629 732/1570
f 741/1564 735/1547 364/645
f 737/1549 736/1548 740/1562
f 232/363 257/1571 738/1553
f 257/1571 742/1567 738/1553
f 742/1567 266/1572 360/628 732/1570
f 257/1571 232/363 234/365
f 742/1567 257/1571 256/1573
f 266/1572 742/1567 256/1573
f 744/1574 741/1564 364/645
f 745/1575 740/1562 736/1548
f 623/1210 719/1561 740/1562
f 623/1210 614/1187 719/1561
f 744/1574 364/645 366/651
f 736/1548 743/1569 745/1575
f 266/414 365/649 360/628
f 743/1569 741/1576 744/1577 746/1578
f 747/1579 740/1562 745/1575
f 746/1578 745/1575 743/1569
f 366/651 370/1580 746/1581 744/1574
f 623/1210 740/1562 747/1582
f 748/1583 623/1210 747/1582
f 749/1584 746/1585 370/1586
f 750/1587 745/1575 746/1578
f 370/1588 365/649 138/1589
f 748/1583 629/1590 623/1210
f 138/1589 365/649 279/457
f 747/1579 745/1575 750/1591
f 277/449 265/413 372/679
f 138/1592 749/1584 370/1586
f 751/1593 748/1583 747/1582 750/1594
f 156/1595 750/1594 749/1596
f 136/482 277/481 372/680
f 137/242 156/241 749/1584 138/1592
f 638/1281 629/1590 748/1583
f 751/1597 638/1281 748/1583
f 156/1595 751/1593 750/1594
f 647/1279 638/1281 751/1597
f 752/1598 751/1593 156/1595
f 752/1599 647/1279 751/1597
f 752/1598 156/1595 155/280
f 647/1279 752/1599 197/1600
f 647/1285 197/1601 199/1295
f 197/1600 752/1599 183/1602
f 752/1598 155/280 183/279
f 183/279 165/281 189/1603
f 746/1604 749/1596 750/1594
